{"success":true,"message":"Farmers fetched successfully","data":{"farmers":[{"id":1776,"yemertId":"YM-7667","timestamp":null,"fullName":"Tracy Cronin","gender":"male","region":null,"ageRange":"813-894","nationalIdNumber":"709977961973","email":"Viola_Beatty26@yahoo.com","phoneNumber":"+1234567890","mobileMoney":null,"provider":"NONE","whatsappNumber":"+876-676-7888","homeAddress":"44322 Bradford Rest","countyDistrict":"New Caledonia","country":"Antarctica (the territory South of 60 deg S)","farmLocation":"South Adah","farmSize":5.2,"actualFarmSize":"5.2 hectares","landOwnershipStatus":"Owned","yearsFarmingExperience":"10","averageAnnualYield":"20 tons","farmingPractices":"Organic farming, Mixed cropping","annualFarmingRevenue":"₦3,000,000","accessToCredit":"Yes","previousInsurance":"No","produceSaleLocation":"Local market","financialChallenge":"High input cost","recentChallenges":"Flooding, Pest invasion","soilManagement":"Crop rotation, Compost use","irrigationAccess":false,"climateResilientProgram":true,"sustainablePractices":"Use of compost, minimal tillage","carbonCreditProgram":false,"cropInsuranceInterest":true,"paymentFrequency":"Quarterly","insuranceConcerns":"High premium cost","recommendInsurance":"Yes, to fellow farmers","dataConsent":true,"createdAt":"2025-07-21T17:22:59.739Z","updatedAt":"2025-07-21T17:22:59.739Z","isActive":true,"crops":["Cotton","Wooden"],"isUssd":false,"farmPhotos":[]},{"id":1775,"yemertId":"YM-7611","timestamp":null,"fullName":"Julius Bauch","gender":"male","region":null,"ageRange":"302-341","nationalIdNumber":"197352811752","email":"Braeden.Hand@yahoo.com","phoneNumber":"+1234567890","mobileMoney":null,"provider":"NONE","whatsappNumber":"+616-501-5352","homeAddress":"25505 Hilton Divide","countyDistrict":"Tuvalu","country":"Rwanda","farmLocation":"Folsom","farmSize":5.2,"actualFarmSize":"5.2 hectares","landOwnershipStatus":"Owned","yearsFarmingExperience":"10","averageAnnualYield":"20 tons","farmingPractices":"Organic farming, Mixed cropping","annualFarmingRevenue":"₦3,000,000","accessToCredit":"Yes","previousInsurance":"No","produceSaleLocation":"Local market","financialChallenge":"High input cost","recentChallenges":"Flooding, Pest invasion","soilManagement":"Crop rotation, Compost use","irrigationAccess":true,"climateResilientProgram":true,"sustainablePractices":"Use of compost, minimal tillage","carbonCreditProgram":false,"cropInsuranceInterest":true,"paymentFrequency":"Quarterly","insuranceConcerns":"High premium cost","recommendInsurance":"Yes, to fellow farmers","dataConsent":true,"createdAt":"2025-07-21T17:21:26.969Z","updatedAt":"2025-07-21T17:21:26.969Z","isActive":true,"crops":["Concrete","Frozen"],"isUssd":false,"farmPhotos":[]},{"id":1774,"yemertId":"YM-3684","timestamp":null,"fullName":"Clint Adams","gender":"male","region":null,"ageRange":"919-403","nationalIdNumber":"95142713410","email":"Jennie.Boehm50@yahoo.com","phoneNumber":"+1234567890","mobileMoney":null,"provider":"NONE","whatsappNumber":"+870-911-9680","homeAddress":"492 Shanahan Viaduct","countyDistrict":"Venezuela","country":"Kazakhstan","farmLocation":"Antwanborough","farmSize":5.2,"actualFarmSize":"5.2 hectares","landOwnershipStatus":"Owned","yearsFarmingExperience":"10","averageAnnualYield":"20 tons","farmingPractices":"Organic farming, Mixed cropping","annualFarmingRevenue":"₦3,000,000","accessToCredit":"Yes","previousInsurance":"No","produceSaleLocation":"Local market","financialChallenge":"High input cost","recentChallenges":"Flooding, Pest invasion","soilManagement":"Crop rotation, Compost use","irrigationAccess":true,"climateResilientProgram":true,"sustainablePractices":"Use of compost, minimal tillage","carbonCreditProgram":false,"cropInsuranceInterest":true,"paymentFrequency":"Quarterly","insuranceConcerns":"High premium cost","recommendInsurance":"Yes, to fellow farmers","dataConsent":true,"createdAt":"2025-07-21T17:21:20.914Z","updatedAt":"2025-07-21T17:21:20.914Z","isActive":true,"crops":["Soft","Wooden"],"isUssd":false,"farmPhotos":[]},{"id":1773,"yemertId":"YM-6647","timestamp":null,"fullName":"Debra Smitham","gender":null,"region":null,"ageRange":null,"nationalIdNumber":null,"email":null,"phoneNumber":null,"mobileMoney":null,"provider":"NONE","whatsappNumber":null,"homeAddress":null,"countyDistrict":null,"country":null,"farmLocation":null,"farmSize":null,"actualFarmSize":null,"landOwnershipStatus":null,"yearsFarmingExperience":null,"averageAnnualYield":null,"farmingPractices":"Local farming","annualFarmingRevenue":null,"accessToCredit":"not common","previousInsurance":"not common","produceSaleLocation":"local market","financialChallenge":null,"recentChallenges":null,"soilManagement":null,"irrigationAccess":false,"climateResilientProgram":false,"sustainablePractices":null,"carbonCreditProgram":false,"cropInsuranceInterest":false,"paymentFrequency":null,"insuranceConcerns":null,"recommendInsurance":null,"dataConsent":false,"createdAt":"2025-07-21T17:19:31.244Z","updatedAt":"2025-07-21T17:19:31.244Z","isActive":true,"crops":["Concrete","Wooden"],"isUssd":false,"farmPhotos":[]},{"id":1772,"yemertId":"YM-3747","timestamp":null,"fullName":"Rufus Dach","gender":null,"region":null,"ageRange":null,"nationalIdNumber":null,"email":null,"phoneNumber":null,"mobileMoney":null,"provider":"NONE","whatsappNumber":null,"homeAddress":null,"countyDistrict":null,"country":null,"farmLocation":null,"farmSize":null,"actualFarmSize":null,"landOwnershipStatus":null,"yearsFarmingExperience":null,"averageAnnualYield":null,"farmingPractices":"Local farming","annualFarmingRevenue":null,"accessToCredit":"not common","previousInsurance":"not common","produceSaleLocation":"local market","financialChallenge":null,"recentChallenges":null,"soilManagement":null,"irrigationAccess":false,"climateResilientProgram":false,"sustainablePractices":null,"carbonCreditProgram":false,"cropInsuranceInterest":false,"paymentFrequency":null,"insuranceConcerns":null,"recommendInsurance":null,"dataConsent":false,"createdAt":"2025-07-21T16:59:45.032Z","updatedAt":"2025-07-21T16:59:45.032Z","isActive":true,"crops":["Fresh","Frozen"],"isUssd":false,"farmPhotos":[]},{"id":1771,"yemertId":"YM-9598","timestamp":null,"fullName":"Brood Lood","gender":"-","region":null,"ageRange":null,"nationalIdNumber":null,"email":null,"phoneNumber":"2348031111113","mobileMoney":"08031111113","provider":"NONE","whatsappNumber":null,"homeAddress":null,"countyDistrict":"Kano","country":"nigeria","farmLocation":"Kano","farmSize":0,"actualFarmSize":"more than 3 acres","landOwnershipStatus":null,"yearsFarmingExperience":"0","averageAnnualYield":null,"farmingPractices":"Local farming","annualFarmingRevenue":null,"accessToCredit":"not common","previousInsurance":"not common","produceSaleLocation":"local market","financialChallenge":null,"recentChallenges":null,"soilManagement":null,"irrigationAccess":false,"climateResilientProgram":false,"sustainablePractices":null,"carbonCreditProgram":false,"cropInsuranceInterest":false,"paymentFrequency":null,"insuranceConcerns":null,"recommendInsurance":null,"dataConsent":false,"createdAt":"2025-07-21T15:30:12.459Z","updatedAt":"2025-07-21T15:30:12.459Z","isActive":true,"crops":["vegetables"],"isUssd":true,"farmPhotos":[]},{"id":1770,"yemertId":"YM-3887","timestamp":null,"fullName":"Polly Solly","gender":"-","region":null,"ageRange":null,"nationalIdNumber":null,"email":null,"phoneNumber":"2348031111111","mobileMoney":null,"provider":"NONE","whatsappNumber":null,"homeAddress":null,"countyDistrict":"","country":"nigeria","farmLocation":"","farmSize":0,"actualFarmSize":"more than 3 acres","landOwnershipStatus":null,"yearsFarmingExperience":"0","averageAnnualYield":null,"farmingPractices":"Local farming","annualFarmingRevenue":null,"accessToCredit":"not common","previousInsurance":"not common","produceSaleLocation":"local market","financialChallenge":null,"recentChallenges":null,"soilManagement":null,"irrigationAccess":false,"climateResilientProgram":false,"sustainablePractices":null,"carbonCreditProgram":false,"cropInsuranceInterest":false,"paymentFrequency":null,"insuranceConcerns":null,"recommendInsurance":null,"dataConsent":false,"createdAt":"2025-07-19T16:48:57.291Z","updatedAt":"2025-07-19T16:48:57.291Z","isActive":true,"crops":["vegetables"],"isUssd":true,"farmPhotos":[]},{"id":1769,"yemertId":"YM-9664","timestamp":null,"fullName":"Steve Bergstrom PhD","gender":"male","region":null,"ageRange":"102-661","nationalIdNumber":"706832231935","email":"Emelia71@gmail.com","phoneNumber":"+2348031111112","mobileMoney":null,"provider":"NONE","whatsappNumber":"+798-525-9537","homeAddress":"34545 Zackary Views","countyDistrict":"Palau","country":"Holy See (Vatican City State)","farmLocation":"Paoloton","farmSize":5.2,"actualFarmSize":"5.2 hectares","landOwnershipStatus":"Owned","yearsFarmingExperience":"10","averageAnnualYield":"20 tons","farmingPractices":"Organic farming, Mixed cropping","annualFarmingRevenue":"₦3,000,000","accessToCredit":"Yes","previousInsurance":"No","produceSaleLocation":"Local market","financialChallenge":"High input cost","recentChallenges":"Flooding, Pest invasion","soilManagement":"Crop rotation, Compost use","irrigationAccess":true,"climateResilientProgram":true,"sustainablePractices":"Use of compost, minimal tillage","carbonCreditProgram":false,"cropInsuranceInterest":true,"paymentFrequency":"Quarterly","insuranceConcerns":"High premium cost","recommendInsurance":"Yes, to fellow farmers","dataConsent":true,"createdAt":"2025-07-19T14:57:39.691Z","updatedAt":"2025-07-19T14:57:39.691Z","isActive":true,"crops":["Concrete","Steel"],"isUssd":false,"farmPhotos":[]},{"id":1768,"yemertId":"YM-2937","timestamp":null,"fullName":"Nicole O'Keefe","gender":"male","region":null,"ageRange":"584-621","nationalIdNumber":"871275287192","email":"Alexandria.Lesch@gmail.com","phoneNumber":"+2348031111112","mobileMoney":null,"provider":"NONE","whatsappNumber":"+659-775-0618","homeAddress":"96497 Alvina Crest","countyDistrict":"Spain","country":"Oman","farmLocation":"Port Israelfurt","farmSize":5.2,"actualFarmSize":"5.2 hectares","landOwnershipStatus":"Owned","yearsFarmingExperience":"10","averageAnnualYield":"20 tons","farmingPractices":"Organic farming, Mixed cropping","annualFarmingRevenue":"₦3,000,000","accessToCredit":"Yes","previousInsurance":"No","produceSaleLocation":"Local market","financialChallenge":"High input cost","recentChallenges":"Flooding, Pest invasion","soilManagement":"Crop rotation, Compost use","irrigationAccess":true,"climateResilientProgram":true,"sustainablePractices":"Use of compost, minimal tillage","carbonCreditProgram":false,"cropInsuranceInterest":true,"paymentFrequency":"Quarterly","insuranceConcerns":"High premium cost","recommendInsurance":"Yes, to fellow farmers","dataConsent":true,"createdAt":"2025-07-19T14:57:35.286Z","updatedAt":"2025-07-19T14:57:35.286Z","isActive":true,"crops":["Concrete","Frozen"],"isUssd":false,"farmPhotos":[]},{"id":1767,"yemertId":"YM-4702","timestamp":null,"fullName":"Lucy Bauch","gender":"male","region":null,"ageRange":"26-276","nationalIdNumber":"411205839317","email":"Candace.Crist@yahoo.com","phoneNumber":"+517-730-1069","mobileMoney":null,"provider":"NONE","whatsappNumber":"+225-831-8154","homeAddress":"61841 Nitzsche Ville","countyDistrict":"Botswana","country":"Hong Kong","farmLocation":"Lake Manuelaport","farmSize":5.2,"actualFarmSize":"5.2 hectares","landOwnershipStatus":"Owned","yearsFarmingExperience":"10","averageAnnualYield":"20 tons","farmingPractices":"Organic farming, Mixed cropping","annualFarmingRevenue":"₦3,000,000","accessToCredit":"Yes","previousInsurance":"No","produceSaleLocation":"Local market","financialChallenge":"High input cost","recentChallenges":"Flooding, Pest invasion","soilManagement":"Crop rotation, Compost use","irrigationAccess":true,"climateResilientProgram":true,"sustainablePractices":"Use of compost, minimal tillage","carbonCreditProgram":false,"cropInsuranceInterest":true,"paymentFrequency":"Quarterly","insuranceConcerns":"High premium cost","recommendInsurance":"Yes, to fellow farmers","dataConsent":true,"createdAt":"2025-07-19T14:57:13.917Z","updatedAt":"2025-07-19T14:57:13.917Z","isActive":true,"crops":["Metal","Fresh"],"isUssd":false,"farmPhotos":[]},{"id":1766,"yemertId":"YM-9730","timestamp":null,"fullName":"Dr. Amy Ryan","gender":"male","region":null,"ageRange":"413-404","nationalIdNumber":"469842405646","email":"Vinnie_Homenick@gmail.com","phoneNumber":"+707-617-1227","mobileMoney":null,"provider":"NONE","whatsappNumber":"+312-816-5076","homeAddress":"662 Lind Road","countyDistrict":"Malta","country":"Brunei Darussalam","farmLocation":"Lake Lukasmouth","farmSize":5.2,"actualFarmSize":"5.2 hectares","landOwnershipStatus":"Owned","yearsFarmingExperience":"10","averageAnnualYield":"20 tons","farmingPractices":"Organic farming, Mixed cropping","annualFarmingRevenue":"₦3,000,000","accessToCredit":"Yes","previousInsurance":"No","produceSaleLocation":"Local market","financialChallenge":"High input cost","recentChallenges":"Flooding, Pest invasion","soilManagement":"Crop rotation, Compost use","irrigationAccess":true,"climateResilientProgram":true,"sustainablePractices":"Use of compost, minimal tillage","carbonCreditProgram":false,"cropInsuranceInterest":true,"paymentFrequency":"Quarterly","insuranceConcerns":"High premium cost","recommendInsurance":"Yes, to fellow farmers","dataConsent":true,"createdAt":"2025-07-19T13:41:18.855Z","updatedAt":"2025-07-19T13:41:18.855Z","isActive":true,"crops":["Rubber","Cotton"],"isUssd":false,"farmPhotos":[]},{"id":1765,"yemertId":"YM-2585","timestamp":null,"fullName":"Boot Loot","gender":"-","region":null,"ageRange":null,"nationalIdNumber":null,"email":null,"phoneNumber":"2348031111112","mobileMoney":"08031111112","provider":"NONE","whatsappNumber":null,"homeAddress":null,"countyDistrict":"Kano","country":"nigeria","farmLocation":"Kano","farmSize":0,"actualFarmSize":"","landOwnershipStatus":null,"yearsFarmingExperience":"0","averageAnnualYield":null,"farmingPractices":"Local farming","annualFarmingRevenue":null,"accessToCredit":"not common","previousInsurance":"not common","produceSaleLocation":"local market","financialChallenge":null,"recentChallenges":null,"soilManagement":null,"irrigationAccess":false,"climateResilientProgram":false,"sustainablePractices":null,"carbonCreditProgram":false,"cropInsuranceInterest":false,"paymentFrequency":null,"insuranceConcerns":null,"recommendInsurance":null,"dataConsent":false,"createdAt":"2025-07-19T13:34:55.198Z","updatedAt":"2025-07-19T13:34:55.198Z","isActive":true,"crops":["maize"],"isUssd":true,"farmPhotos":[]},{"id":1764,"yemertId":"YM-1109","timestamp":null,"fullName":"Heoo hdjjd","gender":"-","region":null,"ageRange":null,"nationalIdNumber":null,"email":null,"phoneNumber":"234345345234523","mobileMoney":"081065236363","provider":"NONE","whatsappNumber":null,"homeAddress":null,"countyDistrict":"Kano","country":"nigeria","farmLocation":"Kano","farmSize":0,"actualFarmSize":"more than 3 acres","landOwnershipStatus":null,"yearsFarmingExperience":"0","averageAnnualYield":null,"farmingPractices":"Local farming","annualFarmingRevenue":null,"accessToCredit":"not common","previousInsurance":"not common","produceSaleLocation":"local market","financialChallenge":null,"recentChallenges":null,"soilManagement":null,"irrigationAccess":false,"climateResilientProgram":false,"sustainablePractices":null,"carbonCreditProgram":false,"cropInsuranceInterest":false,"paymentFrequency":null,"insuranceConcerns":null,"recommendInsurance":null,"dataConsent":false,"createdAt":"2025-07-18T16:12:57.108Z","updatedAt":"2025-07-18T16:12:57.108Z","isActive":true,"crops":["cassava"],"isUssd":true,"farmPhotos":[]},{"id":1763,"yemertId":"YM-3641","timestamp":null,"fullName":"Jane Adabayo","gender":"-","region":null,"ageRange":null,"nationalIdNumber":null,"email":null,"phoneNumber":"23409160563943","mobileMoney":"08100000001","provider":"NONE","whatsappNumber":null,"homeAddress":null,"countyDistrict":"Kano","country":"nigeria","farmLocation":"Kano","farmSize":0,"actualFarmSize":"more than 3 acres","landOwnershipStatus":null,"yearsFarmingExperience":"0","averageAnnualYield":null,"farmingPractices":"Local farming","annualFarmingRevenue":null,"accessToCredit":"not common","previousInsurance":"not common","produceSaleLocation":"local market","financialChallenge":null,"recentChallenges":null,"soilManagement":null,"irrigationAccess":false,"climateResilientProgram":false,"sustainablePractices":null,"carbonCreditProgram":false,"cropInsuranceInterest":false,"paymentFrequency":null,"insuranceConcerns":null,"recommendInsurance":null,"dataConsent":false,"createdAt":"2025-07-15T10:13:27.815Z","updatedAt":"2025-07-15T10:13:27.815Z","isActive":true,"crops":[""],"isUssd":true,"farmPhotos":[]},{"id":1758,"yemertId":"YM-2180","timestamp":null,"fullName":"Johnnie Kiehn","gender":"male","region":null,"ageRange":"522-716","nationalIdNumber":"60487910957","email":"Camron.Douglas19@hotmail.com","phoneNumber":"+735-988-3902","mobileMoney":null,"provider":"NONE","whatsappNumber":"+837-471-8671","homeAddress":"18267 Moore Overpass","countyDistrict":"Hong Kong","country":"Barbados","farmLocation":"Ankundingfurt","farmSize":5.2,"actualFarmSize":"5.2 hectares","landOwnershipStatus":"Owned","yearsFarmingExperience":"10","averageAnnualYield":"20 tons","farmingPractices":"Organic farming, Mixed cropping","annualFarmingRevenue":"₦3,000,000","accessToCredit":"Yes","previousInsurance":"No","produceSaleLocation":"Local market","financialChallenge":"High input cost","recentChallenges":"Flooding, Pest invasion","soilManagement":"Crop rotation, Compost use","irrigationAccess":true,"climateResilientProgram":true,"sustainablePractices":"Use of compost, minimal tillage","carbonCreditProgram":false,"cropInsuranceInterest":true,"paymentFrequency":"Quarterly","insuranceConcerns":"High premium cost","recommendInsurance":"Yes, to fellow farmers","dataConsent":true,"createdAt":"2025-07-11T16:59:55.238Z","updatedAt":"2025-07-11T16:59:55.238Z","isActive":true,"crops":["Cotton","Steel"],"isUssd":false,"farmPhotos":[{"photoUrl":"https://example.com/farm1.jpg"},{"photoUrl":"https://example.com/farm2.jpg"}]},{"id":1760,"yemertId":"YM-1841","timestamp":null,"fullName":"Alicia Brown","gender":"male","region":null,"ageRange":"763-106","nationalIdNumber":"74418426947","email":"Lester86@yahoo.com","phoneNumber":"+428-635-9590","mobileMoney":null,"provider":"NONE","whatsappNumber":"+671-665-4133","homeAddress":"97144 Harris Vista","countyDistrict":"Lithuania","country":"Guyana","farmLocation":"South Earnestine","farmSize":5.2,"actualFarmSize":"5.2 hectares","landOwnershipStatus":"Owned","yearsFarmingExperience":"10","averageAnnualYield":"20 tons","farmingPractices":"Organic farming, Mixed cropping","annualFarmingRevenue":"₦3,000,000","accessToCredit":"Yes","previousInsurance":"No","produceSaleLocation":"Local market","financialChallenge":"High input cost","recentChallenges":"Flooding, Pest invasion","soilManagement":"Crop rotation, Compost use","irrigationAccess":true,"climateResilientProgram":true,"sustainablePractices":"Use of compost, minimal tillage","carbonCreditProgram":false,"cropInsuranceInterest":true,"paymentFrequency":"Quarterly","insuranceConcerns":"High premium cost","recommendInsurance":"Yes, to fellow farmers","dataConsent":true,"createdAt":"2025-07-11T16:59:55.238Z","updatedAt":"2025-07-11T16:59:55.238Z","isActive":true,"crops":["Concrete","Plastic"],"isUssd":false,"farmPhotos":[{"photoUrl":"https://example.com/farm1.jpg"},{"photoUrl":"https://example.com/farm2.jpg"}]},{"id":1762,"yemertId":"YM-8984","timestamp":null,"fullName":"Mr. Cary Mosciski","gender":"male","region":null,"ageRange":"937-623","nationalIdNumber":"623433607326","email":"Kenya12@yahoo.com","phoneNumber":"+833-457-5671","mobileMoney":null,"provider":"NONE","whatsappNumber":"+688-840-2406","homeAddress":"676 Frank Ridges","countyDistrict":"Iraq","country":"Saint Martin","farmLocation":"East Eric","farmSize":5.2,"actualFarmSize":"5.2 hectares","landOwnershipStatus":"Owned","yearsFarmingExperience":"10","averageAnnualYield":"20 tons","farmingPractices":"Organic farming, Mixed cropping","annualFarmingRevenue":"₦3,000,000","accessToCredit":"Yes","previousInsurance":"No","produceSaleLocation":"Local market","financialChallenge":"High input cost","recentChallenges":"Flooding, Pest invasion","soilManagement":"Crop rotation, Compost use","irrigationAccess":true,"climateResilientProgram":true,"sustainablePractices":"Use of compost, minimal tillage","carbonCreditProgram":false,"cropInsuranceInterest":true,"paymentFrequency":"Quarterly","insuranceConcerns":"High premium cost","recommendInsurance":"Yes, to fellow farmers","dataConsent":true,"createdAt":"2025-07-11T16:59:55.238Z","updatedAt":"2025-07-11T16:59:55.238Z","isActive":true,"crops":["Concrete","Frozen"],"isUssd":false,"farmPhotos":[{"photoUrl":"https://example.com/farm1.jpg"},{"photoUrl":"https://example.com/farm2.jpg"}]},{"id":1761,"yemertId":"YM-1140","timestamp":null,"fullName":"Charles Abernathy DDS","gender":"male","region":null,"ageRange":"766-108","nationalIdNumber":"13125791959","email":"Griffin.Goldner28@gmail.com","phoneNumber":"+848-397-3294","mobileMoney":null,"provider":"NONE","whatsappNumber":"+890-648-7105","homeAddress":"298 Hettinger Orchard","countyDistrict":"Gibraltar","country":"Martinique","farmLocation":"Garrettmouth","farmSize":5.2,"actualFarmSize":"5.2 hectares","landOwnershipStatus":"Owned","yearsFarmingExperience":"10","averageAnnualYield":"20 tons","farmingPractices":"Organic farming, Mixed cropping","annualFarmingRevenue":"₦3,000,000","accessToCredit":"Yes","previousInsurance":"No","produceSaleLocation":"Local market","financialChallenge":"High input cost","recentChallenges":"Flooding, Pest invasion","soilManagement":"Crop rotation, Compost use","irrigationAccess":true,"climateResilientProgram":true,"sustainablePractices":"Use of compost, minimal tillage","carbonCreditProgram":false,"cropInsuranceInterest":true,"paymentFrequency":"Quarterly","insuranceConcerns":"High premium cost","recommendInsurance":"Yes, to fellow farmers","dataConsent":true,"createdAt":"2025-07-11T16:59:55.238Z","updatedAt":"2025-07-11T16:59:55.238Z","isActive":true,"crops":["Soft","Granite"],"isUssd":false,"farmPhotos":[{"photoUrl":"https://example.com/farm1.jpg"},{"photoUrl":"https://example.com/farm2.jpg"}]},{"id":1759,"yemertId":"YM-7597","timestamp":null,"fullName":"Dr. Horace Cronin","gender":"male","region":null,"ageRange":"437-903","nationalIdNumber":"998274356435","email":"Janae_Wunsch0@gmail.com","phoneNumber":"+698-720-9847","mobileMoney":null,"provider":"NONE","whatsappNumber":"+672-752-7597","homeAddress":"00223 Hansen Isle","countyDistrict":"Pakistan","country":"Anguilla","farmLocation":"Sigridview","farmSize":5.2,"actualFarmSize":"5.2 hectares","landOwnershipStatus":"Owned","yearsFarmingExperience":"10","averageAnnualYield":"20 tons","farmingPractices":"Organic farming, Mixed cropping","annualFarmingRevenue":"₦3,000,000","accessToCredit":"Yes","previousInsurance":"No","produceSaleLocation":"Local market","financialChallenge":"High input cost","recentChallenges":"Flooding, Pest invasion","soilManagement":"Crop rotation, Compost use","irrigationAccess":true,"climateResilientProgram":true,"sustainablePractices":"Use of compost, minimal tillage","carbonCreditProgram":false,"cropInsuranceInterest":true,"paymentFrequency":"Quarterly","insuranceConcerns":"High premium cost","recommendInsurance":"Yes, to fellow farmers","dataConsent":true,"createdAt":"2025-07-11T16:59:55.238Z","updatedAt":"2025-07-11T16:59:55.238Z","isActive":true,"crops":["Granite","Cotton"],"isUssd":false,"farmPhotos":[{"photoUrl":"https://example.com/farm1.jpg"},{"photoUrl":"https://example.com/farm2.jpg"}]},{"id":1757,"yemertId":"YM-8374","timestamp":null,"fullName":"Elmer Schimmel","gender":null,"region":null,"ageRange":null,"nationalIdNumber":null,"email":null,"phoneNumber":null,"mobileMoney":null,"provider":"NONE","whatsappNumber":null,"homeAddress":null,"countyDistrict":null,"country":null,"farmLocation":null,"farmSize":null,"actualFarmSize":null,"landOwnershipStatus":null,"yearsFarmingExperience":null,"averageAnnualYield":null,"farmingPractices":"Local farming","annualFarmingRevenue":null,"accessToCredit":"not common","previousInsurance":"not common","produceSaleLocation":"local market","financialChallenge":null,"recentChallenges":null,"soilManagement":null,"irrigationAccess":false,"climateResilientProgram":false,"sustainablePractices":null,"carbonCreditProgram":false,"cropInsuranceInterest":false,"paymentFrequency":null,"insuranceConcerns":null,"recommendInsurance":null,"dataConsent":false,"createdAt":"2025-07-11T16:54:42.397Z","updatedAt":"2025-07-11T16:54:42.397Z","isActive":true,"crops":["Wooden","Steel"],"isUssd":false,"farmPhotos":[]}],"pagination":{"total":104,"page":1,"limit":20,"totalPages":6}}}