{"success":true,"message":"Farmers fetched successfully","data":{"farmers":[{"id":1787,"yemertId":"YM-5470","timestamp":null,"fullName":"Salvatore Swift","gender":"male","region":null,"ageRange":"883-276","nationalIdNumber":"389557658613","email":"Anibal_Waelchi@hotmail.com","phoneNumber":"+635-539-6428","mobileMoney":null,"provider":"NONE","whatsappNumber":"+447-722-9311","homeAddress":"9653 Lincoln Causeway","countyDistrict":"Cameroon","country":"Mauritania","farmLocation":"New Ashleigh","farmSize":5.2,"actualFarmSize":"5.2 hectares","landOwnershipStatus":"Owned","yearsFarmingExperience":"10","averageAnnualYield":"20 tons","farmingPractices":"Organic farming, Mixed cropping","annualFarmingRevenue":"₦3,000,000","accessToCredit":"Yes","previousInsurance":"No","produceSaleLocation":"Local market","financialChallenge":"High input cost","recentChallenges":"Flooding, Pest invasion","soilManagement":"Crop rotation, Compost use","irrigationAccess":true,"climateResilientProgram":true,"sustainablePractices":"Use of compost, minimal tillage","carbonCreditProgram":false,"cropInsuranceInterest":true,"paymentFrequency":"Quarterly","insuranceConcerns":"High premium cost","recommendInsurance":"Yes, to fellow farmers","dataConsent":true,"createdAt":"2025-07-27T19:19:27.280Z","updatedAt":"2025-07-27T19:19:27.280Z","isActive":true,"crops":["Metal","Frozen"],"farmPhotos":[],"isUssd":false},{"id":1786,"yemertId":"YM-7276","timestamp":null,"fullName":"Roxanne Ziemann","gender":"male","region":null,"ageRange":"723-558","nationalIdNumber":"596380810","email":"Theo.Schimmel@yahoo.com","phoneNumber":"+574-795-9978","mobileMoney":null,"provider":"NONE","whatsappNumber":"+716-686-4216","homeAddress":"2903 Parisian Manor","countyDistrict":"Colombia","country":"Svalbard & Jan Mayen Islands","farmLocation":"Huelsfort","farmSize":5.2,"actualFarmSize":"5.2 hectares","landOwnershipStatus":"Owned","yearsFarmingExperience":"10","averageAnnualYield":"20 tons","farmingPractices":"Organic farming, Mixed cropping","annualFarmingRevenue":"₦3,000,000","accessToCredit":"Yes","previousInsurance":"No","produceSaleLocation":"Local market","financialChallenge":"High input cost","recentChallenges":"Flooding, Pest invasion","soilManagement":"Crop rotation, Compost use","irrigationAccess":true,"climateResilientProgram":true,"sustainablePractices":"Use of compost, minimal tillage","carbonCreditProgram":false,"cropInsuranceInterest":true,"paymentFrequency":"Quarterly","insuranceConcerns":"High premium cost","recommendInsurance":"Yes, to fellow farmers","dataConsent":true,"createdAt":"2025-07-27T19:19:27.280Z","updatedAt":"2025-07-27T19:19:27.280Z","isActive":true,"crops":["Concrete","Concrete"],"farmPhotos":[],"isUssd":false},{"id":1785,"yemertId":"YM-6552","timestamp":null,"fullName":"Tim Weimann","gender":"male","region":null,"ageRange":"176-303","nationalIdNumber":"834624738705","email":"Jarrett_McDermott@yahoo.com","phoneNumber":"+429-903-7654","mobileMoney":null,"provider":"NONE","whatsappNumber":"+637-356-0118","homeAddress":"9508 Gaylord Tunnel","countyDistrict":"Democratic People's Republic of Korea","country":"Chile","farmLocation":"Karliestad","farmSize":5.2,"actualFarmSize":"5.2 hectares","landOwnershipStatus":"Owned","yearsFarmingExperience":"10","averageAnnualYield":"20 tons","farmingPractices":"Organic farming, Mixed cropping","annualFarmingRevenue":"₦3,000,000","accessToCredit":"Yes","previousInsurance":"No","produceSaleLocation":"Local market","financialChallenge":"High input cost","recentChallenges":"Flooding, Pest invasion","soilManagement":"Crop rotation, Compost use","irrigationAccess":true,"climateResilientProgram":true,"sustainablePractices":"Use of compost, minimal tillage","carbonCreditProgram":false,"cropInsuranceInterest":true,"paymentFrequency":"Quarterly","insuranceConcerns":"High premium cost","recommendInsurance":"Yes, to fellow farmers","dataConsent":true,"createdAt":"2025-07-27T19:19:27.279Z","updatedAt":"2025-07-27T19:19:27.279Z","isActive":true,"crops":["Concrete","Rubber"],"farmPhotos":[],"isUssd":false},{"id":1783,"yemertId":"YM-1199","timestamp":null,"fullName":"Darnell Hessel","gender":"male","region":null,"ageRange":"396-667","nationalIdNumber":"476549856374","email":"Andreane_Carroll32@gmail.com","phoneNumber":"+641-375-1432","mobileMoney":null,"provider":"NONE","whatsappNumber":"+231-695-6958","homeAddress":"79666 Bartholome Mall","countyDistrict":"Vietnam","country":"Rwanda","farmLocation":"Handville","farmSize":5.2,"actualFarmSize":"5.2 hectares","landOwnershipStatus":"Owned","yearsFarmingExperience":"10","averageAnnualYield":"20 tons","farmingPractices":"Organic farming, Mixed cropping","annualFarmingRevenue":"₦3,000,000","accessToCredit":"Yes","previousInsurance":"No","produceSaleLocation":"Local market","financialChallenge":"High input cost","recentChallenges":"Flooding, Pest invasion","soilManagement":"Crop rotation, Compost use","irrigationAccess":true,"climateResilientProgram":true,"sustainablePractices":"Use of compost, minimal tillage","carbonCreditProgram":false,"cropInsuranceInterest":true,"paymentFrequency":"Quarterly","insuranceConcerns":"High premium cost","recommendInsurance":"Yes, to fellow farmers","dataConsent":true,"createdAt":"2025-07-27T19:19:27.278Z","updatedAt":"2025-07-27T19:19:27.278Z","isActive":true,"crops":["Cotton","Cotton"],"farmPhotos":[],"isUssd":false},{"id":1784,"yemertId":"YM-2340","timestamp":null,"fullName":"Wm Bins II","gender":"male","region":null,"ageRange":"828-106","nationalIdNumber":"179962393141","email":"Freeman88@gmail.com","phoneNumber":"+598-849-8362","mobileMoney":null,"provider":"NONE","whatsappNumber":"+605-275-8797","homeAddress":"922 Lesch Station","countyDistrict":"Libyan Arab Jamahiriya","country":"Mauritania","farmLocation":"South Mustafa","farmSize":5.2,"actualFarmSize":"5.2 hectares","landOwnershipStatus":"Owned","yearsFarmingExperience":"10","averageAnnualYield":"20 tons","farmingPractices":"Organic farming, Mixed cropping","annualFarmingRevenue":"₦3,000,000","accessToCredit":"Yes","previousInsurance":"No","produceSaleLocation":"Local market","financialChallenge":"High input cost","recentChallenges":"Flooding, Pest invasion","soilManagement":"Crop rotation, Compost use","irrigationAccess":true,"climateResilientProgram":true,"sustainablePractices":"Use of compost, minimal tillage","carbonCreditProgram":false,"cropInsuranceInterest":true,"paymentFrequency":"Quarterly","insuranceConcerns":"High premium cost","recommendInsurance":"Yes, to fellow farmers","dataConsent":true,"createdAt":"2025-07-27T19:19:27.276Z","updatedAt":"2025-07-27T19:19:27.276Z","isActive":true,"crops":["Rubber","Fresh"],"farmPhotos":[],"isUssd":false},{"id":1782,"yemertId":"YM-6378","timestamp":null,"fullName":"Evan Effertz","gender":null,"region":null,"ageRange":null,"nationalIdNumber":null,"email":null,"phoneNumber":null,"mobileMoney":null,"provider":"NONE","whatsappNumber":null,"homeAddress":null,"countyDistrict":null,"country":null,"farmLocation":null,"farmSize":null,"actualFarmSize":null,"landOwnershipStatus":null,"yearsFarmingExperience":null,"averageAnnualYield":null,"farmingPractices":"Local farming","annualFarmingRevenue":null,"accessToCredit":"not common","previousInsurance":"not common","produceSaleLocation":"local market","financialChallenge":null,"recentChallenges":null,"soilManagement":null,"irrigationAccess":false,"climateResilientProgram":false,"sustainablePractices":null,"carbonCreditProgram":false,"cropInsuranceInterest":false,"paymentFrequency":null,"insuranceConcerns":null,"recommendInsurance":null,"dataConsent":false,"createdAt":"2025-07-27T19:16:05.229Z","updatedAt":"2025-07-27T19:16:05.229Z","isActive":true,"crops":["Rubber","Fresh"],"farmPhotos":[],"isUssd":false},{"id":1781,"yemertId":"YM-1655","timestamp":null,"fullName":"Bill Stark","gender":"male","region":null,"ageRange":"247-668","nationalIdNumber":"742249502542","email":"Schuyler.Veum@hotmail.com","phoneNumber":"+1234567890","mobileMoney":null,"provider":"NONE","whatsappNumber":"+505-889-5674","homeAddress":"6629 Jesus Orchard","countyDistrict":"Western Sahara","country":"Bahamas","farmLocation":"Valentinbury","farmSize":5.2,"actualFarmSize":"5.2 hectares","landOwnershipStatus":"Owned","yearsFarmingExperience":"10","averageAnnualYield":"20 tons","farmingPractices":"Organic farming, Mixed cropping","annualFarmingRevenue":"₦3,000,000","accessToCredit":"Yes","previousInsurance":"No","produceSaleLocation":"Local market","financialChallenge":"High input cost","recentChallenges":"Flooding, Pest invasion","soilManagement":"Crop rotation, Compost use","irrigationAccess":true,"climateResilientProgram":true,"sustainablePractices":"Use of compost, minimal tillage","carbonCreditProgram":false,"cropInsuranceInterest":true,"paymentFrequency":"Quarterly","insuranceConcerns":"High premium cost","recommendInsurance":"Yes, to fellow farmers","dataConsent":true,"createdAt":"2025-07-27T19:15:49.824Z","updatedAt":"2025-07-27T19:15:49.824Z","isActive":true,"crops":["Fresh","Granite"],"farmPhotos":[],"isUssd":false},{"id":1780,"yemertId":"YM-3922","timestamp":null,"fullName":"Lillian Rodriguez","gender":"male","region":null,"ageRange":"321-441","nationalIdNumber":"79388528085","email":"Jonas.Jast49@gmail.com","phoneNumber":"+1234567890","mobileMoney":null,"provider":"NONE","whatsappNumber":"+932-743-9139","homeAddress":"840 Titus Mountain","countyDistrict":"Bulgaria","country":"Ecuador","farmLocation":"West Nathen","farmSize":5.2,"actualFarmSize":"5.2 hectares","landOwnershipStatus":"Owned","yearsFarmingExperience":"10","averageAnnualYield":"20 tons","farmingPractices":"Organic farming, Mixed cropping","annualFarmingRevenue":"₦3,000,000","accessToCredit":"Yes","previousInsurance":"No","produceSaleLocation":"Local market","financialChallenge":"High input cost","recentChallenges":"Flooding, Pest invasion","soilManagement":"Crop rotation, Compost use","irrigationAccess":true,"climateResilientProgram":true,"sustainablePractices":"Use of compost, minimal tillage","carbonCreditProgram":false,"cropInsuranceInterest":true,"paymentFrequency":"Quarterly","insuranceConcerns":"High premium cost","recommendInsurance":"Yes, to fellow farmers","dataConsent":true,"createdAt":"2025-07-27T19:14:55.367Z","updatedAt":"2025-07-27T19:14:55.367Z","isActive":true,"crops":["Wooden","Rubber"],"farmPhotos":[],"isUssd":false},{"id":1779,"yemertId":"YM-3694","timestamp":null,"fullName":"Jacob Upton DDS","gender":"male","region":null,"ageRange":"108-996","nationalIdNumber":"47993951636","email":"Frances98@yahoo.com","phoneNumber":"+1234567890","mobileMoney":null,"provider":"NONE","whatsappNumber":"+448-475-1500","homeAddress":"226 Pauline Station","countyDistrict":"Botswana","country":"Niger","farmLocation":"North Julio","farmSize":5.2,"actualFarmSize":"5.2 hectares","landOwnershipStatus":"Owned","yearsFarmingExperience":"10","averageAnnualYield":"20 tons","farmingPractices":"Organic farming, Mixed cropping","annualFarmingRevenue":"₦3,000,000","accessToCredit":"Yes","previousInsurance":"No","produceSaleLocation":"Local market","financialChallenge":"High input cost","recentChallenges":"Flooding, Pest invasion","soilManagement":"Crop rotation, Compost use","irrigationAccess":true,"climateResilientProgram":true,"sustainablePractices":"Use of compost, minimal tillage","carbonCreditProgram":false,"cropInsuranceInterest":true,"paymentFrequency":"Quarterly","insuranceConcerns":"High premium cost","recommendInsurance":"Yes, to fellow farmers","dataConsent":true,"createdAt":"2025-07-27T19:14:36.611Z","updatedAt":"2025-07-27T19:14:36.611Z","isActive":true,"crops":["Fresh","Fresh"],"farmPhotos":[],"isUssd":false},{"id":1778,"yemertId":"YM-2991","timestamp":null,"fullName":"Ricky O'Conner","gender":"male","region":null,"ageRange":"500-242","nationalIdNumber":"647552303143","email":"Eloisa.Lesch85@hotmail.com","phoneNumber":"+1234567890","mobileMoney":null,"provider":"NONE","whatsappNumber":"+308-960-8986","homeAddress":"1762 Clint Fall","countyDistrict":"Philippines","country":"Cote d'Ivoire","farmLocation":"Biloxi","farmSize":5.2,"actualFarmSize":"5.2 hectares","landOwnershipStatus":"Owned","yearsFarmingExperience":"10","averageAnnualYield":"20 tons","farmingPractices":"Organic farming, Mixed cropping","annualFarmingRevenue":"₦3,000,000","accessToCredit":"Yes","previousInsurance":"No","produceSaleLocation":"Local market","financialChallenge":"High input cost","recentChallenges":"Flooding, Pest invasion","soilManagement":"Crop rotation, Compost use","irrigationAccess":true,"climateResilientProgram":true,"sustainablePractices":"Use of compost, minimal tillage","carbonCreditProgram":false,"cropInsuranceInterest":true,"paymentFrequency":"Quarterly","insuranceConcerns":"High premium cost","recommendInsurance":"Yes, to fellow farmers","dataConsent":true,"createdAt":"2025-07-27T19:11:48.317Z","updatedAt":"2025-07-27T19:11:48.317Z","isActive":true,"crops":["Rubber","Rubber"],"farmPhotos":[],"isUssd":false},{"id":1777,"yemertId":"YM-2455","timestamp":null,"fullName":"Dr. Al Stiedemann","gender":"male","region":null,"ageRange":"9-52","nationalIdNumber":"91776611911","email":"Pietro12@gmail.com","phoneNumber":"+1234567890","mobileMoney":null,"provider":"NONE","whatsappNumber":"+609-923-3653","homeAddress":"40317 McLaughlin Cliff","countyDistrict":"Hungary","country":"Oman","farmLocation":"O'Reillyton","farmSize":5.2,"actualFarmSize":"5.2 hectares","landOwnershipStatus":"Owned","yearsFarmingExperience":"10","averageAnnualYield":"20 tons","farmingPractices":"Organic farming, Mixed cropping","annualFarmingRevenue":"₦3,000,000","accessToCredit":"Yes","previousInsurance":"No","produceSaleLocation":"Local market","financialChallenge":"High input cost","recentChallenges":"Flooding, Pest invasion","soilManagement":"Crop rotation, Compost use","irrigationAccess":true,"climateResilientProgram":true,"sustainablePractices":"Use of compost, minimal tillage","carbonCreditProgram":false,"cropInsuranceInterest":true,"paymentFrequency":"Quarterly","insuranceConcerns":"High premium cost","recommendInsurance":"Yes, to fellow farmers","dataConsent":true,"createdAt":"2025-07-27T19:05:05.808Z","updatedAt":"2025-07-27T19:05:05.808Z","isActive":true,"crops":["Rubber","Rubber"],"farmPhotos":[],"isUssd":false},{"id":1776,"yemertId":"YM-7667","timestamp":null,"fullName":"Tracy Cronin","gender":"male","region":null,"ageRange":"813-894","nationalIdNumber":"709977961973","email":"Viola_Beatty26@yahoo.com","phoneNumber":"+1234567890","mobileMoney":null,"provider":"NONE","whatsappNumber":"+876-676-7888","homeAddress":"44322 Bradford Rest","countyDistrict":"New Caledonia","country":"Antarctica (the territory South of 60 deg S)","farmLocation":"South Adah","farmSize":5.2,"actualFarmSize":"5.2 hectares","landOwnershipStatus":"Owned","yearsFarmingExperience":"10","averageAnnualYield":"20 tons","farmingPractices":"Organic farming, Mixed cropping","annualFarmingRevenue":"₦3,000,000","accessToCredit":"Yes","previousInsurance":"No","produceSaleLocation":"Local market","financialChallenge":"High input cost","recentChallenges":"Flooding, Pest invasion","soilManagement":"Crop rotation, Compost use","irrigationAccess":false,"climateResilientProgram":true,"sustainablePractices":"Use of compost, minimal tillage","carbonCreditProgram":false,"cropInsuranceInterest":true,"paymentFrequency":"Quarterly","insuranceConcerns":"High premium cost","recommendInsurance":"Yes, to fellow farmers","dataConsent":true,"createdAt":"2025-07-21T17:22:59.739Z","updatedAt":"2025-07-21T17:22:59.739Z","isActive":true,"crops":["Cotton","Wooden"],"farmPhotos":[],"isUssd":false},{"id":1775,"yemertId":"YM-7611","timestamp":null,"fullName":"Julius Bauch","gender":"male","region":null,"ageRange":"302-341","nationalIdNumber":"197352811752","email":"Braeden.Hand@yahoo.com","phoneNumber":"+1234567890","mobileMoney":null,"provider":"NONE","whatsappNumber":"+616-501-5352","homeAddress":"25505 Hilton Divide","countyDistrict":"Tuvalu","country":"Rwanda","farmLocation":"Folsom","farmSize":5.2,"actualFarmSize":"5.2 hectares","landOwnershipStatus":"Owned","yearsFarmingExperience":"10","averageAnnualYield":"20 tons","farmingPractices":"Organic farming, Mixed cropping","annualFarmingRevenue":"₦3,000,000","accessToCredit":"Yes","previousInsurance":"No","produceSaleLocation":"Local market","financialChallenge":"High input cost","recentChallenges":"Flooding, Pest invasion","soilManagement":"Crop rotation, Compost use","irrigationAccess":true,"climateResilientProgram":true,"sustainablePractices":"Use of compost, minimal tillage","carbonCreditProgram":false,"cropInsuranceInterest":true,"paymentFrequency":"Quarterly","insuranceConcerns":"High premium cost","recommendInsurance":"Yes, to fellow farmers","dataConsent":true,"createdAt":"2025-07-21T17:21:26.969Z","updatedAt":"2025-07-21T17:21:26.969Z","isActive":true,"crops":["Concrete","Frozen"],"farmPhotos":[],"isUssd":false},{"id":1774,"yemertId":"YM-3684","timestamp":null,"fullName":"Clint Adams","gender":"male","region":null,"ageRange":"919-403","nationalIdNumber":"95142713410","email":"Jennie.Boehm50@yahoo.com","phoneNumber":"+1234567890","mobileMoney":null,"provider":"NONE","whatsappNumber":"+870-911-9680","homeAddress":"492 Shanahan Viaduct","countyDistrict":"Venezuela","country":"Kazakhstan","farmLocation":"Antwanborough","farmSize":5.2,"actualFarmSize":"5.2 hectares","landOwnershipStatus":"Owned","yearsFarmingExperience":"10","averageAnnualYield":"20 tons","farmingPractices":"Organic farming, Mixed cropping","annualFarmingRevenue":"₦3,000,000","accessToCredit":"Yes","previousInsurance":"No","produceSaleLocation":"Local market","financialChallenge":"High input cost","recentChallenges":"Flooding, Pest invasion","soilManagement":"Crop rotation, Compost use","irrigationAccess":true,"climateResilientProgram":true,"sustainablePractices":"Use of compost, minimal tillage","carbonCreditProgram":false,"cropInsuranceInterest":true,"paymentFrequency":"Quarterly","insuranceConcerns":"High premium cost","recommendInsurance":"Yes, to fellow farmers","dataConsent":true,"createdAt":"2025-07-21T17:21:20.914Z","updatedAt":"2025-07-21T17:21:20.914Z","isActive":true,"crops":["Soft","Wooden"],"farmPhotos":[],"isUssd":false},{"id":1773,"yemertId":"YM-6647","timestamp":null,"fullName":"Debra Smitham","gender":null,"region":null,"ageRange":null,"nationalIdNumber":null,"email":null,"phoneNumber":null,"mobileMoney":null,"provider":"NONE","whatsappNumber":null,"homeAddress":null,"countyDistrict":null,"country":null,"farmLocation":null,"farmSize":null,"actualFarmSize":null,"landOwnershipStatus":null,"yearsFarmingExperience":null,"averageAnnualYield":null,"farmingPractices":"Local farming","annualFarmingRevenue":null,"accessToCredit":"not common","previousInsurance":"not common","produceSaleLocation":"local market","financialChallenge":null,"recentChallenges":null,"soilManagement":null,"irrigationAccess":false,"climateResilientProgram":false,"sustainablePractices":null,"carbonCreditProgram":false,"cropInsuranceInterest":false,"paymentFrequency":null,"insuranceConcerns":null,"recommendInsurance":null,"dataConsent":false,"createdAt":"2025-07-21T17:19:31.244Z","updatedAt":"2025-07-21T17:19:31.244Z","isActive":true,"crops":["Concrete","Wooden"],"farmPhotos":[],"isUssd":false},{"id":1772,"yemertId":"YM-3747","timestamp":null,"fullName":"Rufus Dach","gender":null,"region":null,"ageRange":null,"nationalIdNumber":null,"email":null,"phoneNumber":null,"mobileMoney":null,"provider":"NONE","whatsappNumber":null,"homeAddress":null,"countyDistrict":null,"country":null,"farmLocation":null,"farmSize":null,"actualFarmSize":null,"landOwnershipStatus":null,"yearsFarmingExperience":null,"averageAnnualYield":null,"farmingPractices":"Local farming","annualFarmingRevenue":null,"accessToCredit":"not common","previousInsurance":"not common","produceSaleLocation":"local market","financialChallenge":null,"recentChallenges":null,"soilManagement":null,"irrigationAccess":false,"climateResilientProgram":false,"sustainablePractices":null,"carbonCreditProgram":false,"cropInsuranceInterest":false,"paymentFrequency":null,"insuranceConcerns":null,"recommendInsurance":null,"dataConsent":false,"createdAt":"2025-07-21T16:59:45.032Z","updatedAt":"2025-07-21T16:59:45.032Z","isActive":true,"crops":["Fresh","Frozen"],"farmPhotos":[],"isUssd":false},{"id":1771,"yemertId":"YM-9598","timestamp":null,"fullName":"Brood Lood","gender":"-","region":null,"ageRange":null,"nationalIdNumber":null,"email":null,"phoneNumber":"2348031111113","mobileMoney":"08031111113","provider":"NONE","whatsappNumber":null,"homeAddress":null,"countyDistrict":"Kano","country":"nigeria","farmLocation":"Kano","farmSize":0,"actualFarmSize":"more than 3 acres","landOwnershipStatus":null,"yearsFarmingExperience":"0","averageAnnualYield":null,"farmingPractices":"Local farming","annualFarmingRevenue":null,"accessToCredit":"not common","previousInsurance":"not common","produceSaleLocation":"local market","financialChallenge":null,"recentChallenges":null,"soilManagement":null,"irrigationAccess":false,"climateResilientProgram":false,"sustainablePractices":null,"carbonCreditProgram":false,"cropInsuranceInterest":false,"paymentFrequency":null,"insuranceConcerns":null,"recommendInsurance":null,"dataConsent":false,"createdAt":"2025-07-21T15:30:12.459Z","updatedAt":"2025-07-21T15:30:12.459Z","isActive":true,"crops":["vegetables"],"farmPhotos":[],"isUssd":true},{"id":1770,"yemertId":"YM-3887","timestamp":null,"fullName":"Polly Solly","gender":"-","region":null,"ageRange":null,"nationalIdNumber":null,"email":null,"phoneNumber":"2348031111111","mobileMoney":null,"provider":"NONE","whatsappNumber":null,"homeAddress":null,"countyDistrict":"","country":"nigeria","farmLocation":"","farmSize":0,"actualFarmSize":"more than 3 acres","landOwnershipStatus":null,"yearsFarmingExperience":"0","averageAnnualYield":null,"farmingPractices":"Local farming","annualFarmingRevenue":null,"accessToCredit":"not common","previousInsurance":"not common","produceSaleLocation":"local market","financialChallenge":null,"recentChallenges":null,"soilManagement":null,"irrigationAccess":false,"climateResilientProgram":false,"sustainablePractices":null,"carbonCreditProgram":false,"cropInsuranceInterest":false,"paymentFrequency":null,"insuranceConcerns":null,"recommendInsurance":null,"dataConsent":false,"createdAt":"2025-07-19T16:48:57.291Z","updatedAt":"2025-07-19T16:48:57.291Z","isActive":true,"crops":["vegetables"],"farmPhotos":[],"isUssd":true},{"id":1769,"yemertId":"YM-9664","timestamp":null,"fullName":"Steve Bergstrom PhD","gender":"male","region":null,"ageRange":"102-661","nationalIdNumber":"706832231935","email":"Emelia71@gmail.com","phoneNumber":"+2348031111112","mobileMoney":null,"provider":"NONE","whatsappNumber":"+798-525-9537","homeAddress":"34545 Zackary Views","countyDistrict":"Palau","country":"Holy See (Vatican City State)","farmLocation":"Paoloton","farmSize":5.2,"actualFarmSize":"5.2 hectares","landOwnershipStatus":"Owned","yearsFarmingExperience":"10","averageAnnualYield":"20 tons","farmingPractices":"Organic farming, Mixed cropping","annualFarmingRevenue":"₦3,000,000","accessToCredit":"Yes","previousInsurance":"No","produceSaleLocation":"Local market","financialChallenge":"High input cost","recentChallenges":"Flooding, Pest invasion","soilManagement":"Crop rotation, Compost use","irrigationAccess":true,"climateResilientProgram":true,"sustainablePractices":"Use of compost, minimal tillage","carbonCreditProgram":false,"cropInsuranceInterest":true,"paymentFrequency":"Quarterly","insuranceConcerns":"High premium cost","recommendInsurance":"Yes, to fellow farmers","dataConsent":true,"createdAt":"2025-07-19T14:57:39.691Z","updatedAt":"2025-07-19T14:57:39.691Z","isActive":true,"crops":["Concrete","Steel"],"farmPhotos":[],"isUssd":false},{"id":1768,"yemertId":"YM-2937","timestamp":null,"fullName":"Nicole O'Keefe","gender":"male","region":null,"ageRange":"584-621","nationalIdNumber":"871275287192","email":"Alexandria.Lesch@gmail.com","phoneNumber":"+2348031111112","mobileMoney":null,"provider":"NONE","whatsappNumber":"+659-775-0618","homeAddress":"96497 Alvina Crest","countyDistrict":"Spain","country":"Oman","farmLocation":"Port Israelfurt","farmSize":5.2,"actualFarmSize":"5.2 hectares","landOwnershipStatus":"Owned","yearsFarmingExperience":"10","averageAnnualYield":"20 tons","farmingPractices":"Organic farming, Mixed cropping","annualFarmingRevenue":"₦3,000,000","accessToCredit":"Yes","previousInsurance":"No","produceSaleLocation":"Local market","financialChallenge":"High input cost","recentChallenges":"Flooding, Pest invasion","soilManagement":"Crop rotation, Compost use","irrigationAccess":true,"climateResilientProgram":true,"sustainablePractices":"Use of compost, minimal tillage","carbonCreditProgram":false,"cropInsuranceInterest":true,"paymentFrequency":"Quarterly","insuranceConcerns":"High premium cost","recommendInsurance":"Yes, to fellow farmers","dataConsent":true,"createdAt":"2025-07-19T14:57:35.286Z","updatedAt":"2025-07-19T14:57:35.286Z","isActive":true,"crops":["Concrete","Frozen"],"farmPhotos":[],"isUssd":false}],"pagination":{"total":115,"page":1,"limit":20,"totalPages":6}}}