{"success":true,"message":"Farmers fetched successfully","data":{"farmers":[{"id":1811,"yemertId":"YM-2057","timestamp":null,"fullName":"Valerie Rohan","gender":"male","region":null,"ageRange":"412-988","nationalIdNumber":"890975325496","email":"Mireille.Frami17@gmail.com","phoneNumber":"+280-752-9081","mobileMoney":null,"provider":"NONE","whatsappNumber":"+704-620-1081","homeAddress":"5810 Dexter Brooks","countyDistrict":"Saint Pierre and Miquelon","country":"South Georgia and the South Sandwich Islands","farmLocation":"North Geovanniview","farmSize":5.2,"actualFarmSize":"5.2 hectares","landOwnershipStatus":"Owned","yearsFarmingExperience":"10","averageAnnualYield":"20 tons","farmingPractices":"Organic farming, Mixed cropping","annualFarmingRevenue":"₦3,000,000","accessToCredit":"Yes","previousInsurance":"No","produceSaleLocation":"Local market","financialChallenge":"High input cost","recentChallenges":"Flooding, Pest invasion","soilManagement":"Crop rotation, Compost use","irrigationAccess":true,"climateResilientProgram":true,"sustainablePractices":"Use of compost, minimal tillage","carbonCreditProgram":false,"cropInsuranceInterest":true,"paymentFrequency":"Quarterly","insuranceConcerns":"High premium cost","recommendInsurance":"Yes, to fellow farmers","dataConsent":true,"createdAt":"2025-08-01T00:29:02.977Z","updatedAt":"2025-08-01T00:29:02.977Z","isActive":true,"crops":["Concrete","Frozen"],"farmPhotos":["https://example.com/farm1.jpg","https://example.com/farm2.jpg"],"isUssd":false},{"id":1810,"yemertId":"YM-6213","timestamp":null,"fullName":"Kyle Wiza","gender":"male","region":null,"ageRange":"943-817","nationalIdNumber":"554281186885","email":"Lenore.Wiza83@hotmail.com","phoneNumber":"+993-960-9060","mobileMoney":null,"provider":"NONE","whatsappNumber":"+580-904-1256","homeAddress":"1880 Dickinson Inlet","countyDistrict":"Kenya","country":"Benin","farmLocation":"West Juana","farmSize":5.2,"actualFarmSize":"5.2 hectares","landOwnershipStatus":"Owned","yearsFarmingExperience":"10","averageAnnualYield":"20 tons","farmingPractices":"Organic farming, Mixed cropping","annualFarmingRevenue":"₦3,000,000","accessToCredit":"Yes","previousInsurance":"No","produceSaleLocation":"Local market","financialChallenge":"High input cost","recentChallenges":"Flooding, Pest invasion","soilManagement":"Crop rotation, Compost use","irrigationAccess":true,"climateResilientProgram":true,"sustainablePractices":"Use of compost, minimal tillage","carbonCreditProgram":false,"cropInsuranceInterest":true,"paymentFrequency":"Quarterly","insuranceConcerns":"High premium cost","recommendInsurance":"Yes, to fellow farmers","dataConsent":true,"createdAt":"2025-08-01T00:29:02.977Z","updatedAt":"2025-08-01T00:29:02.977Z","isActive":true,"crops":["Soft","Metal"],"farmPhotos":["https://example.com/farm1.jpg","https://example.com/farm2.jpg"],"isUssd":false},{"id":1809,"yemertId":"YM-9228","timestamp":null,"fullName":"Cesar Ratke","gender":"male","region":null,"ageRange":"800-591","nationalIdNumber":"251889757882","email":"Genesis_Jacobson30@hotmail.com","phoneNumber":"+574-234-2941","mobileMoney":null,"provider":"NONE","whatsappNumber":"+379-410-7514","homeAddress":"14142 Tom Landing","countyDistrict":"Tuvalu","country":"Andorra","farmLocation":"Lake Reynoldfurt","farmSize":5.2,"actualFarmSize":"5.2 hectares","landOwnershipStatus":"Owned","yearsFarmingExperience":"10","averageAnnualYield":"20 tons","farmingPractices":"Organic farming, Mixed cropping","annualFarmingRevenue":"₦3,000,000","accessToCredit":"Yes","previousInsurance":"No","produceSaleLocation":"Local market","financialChallenge":"High input cost","recentChallenges":"Flooding, Pest invasion","soilManagement":"Crop rotation, Compost use","irrigationAccess":true,"climateResilientProgram":true,"sustainablePractices":"Use of compost, minimal tillage","carbonCreditProgram":false,"cropInsuranceInterest":true,"paymentFrequency":"Quarterly","insuranceConcerns":"High premium cost","recommendInsurance":"Yes, to fellow farmers","dataConsent":true,"createdAt":"2025-08-01T00:29:02.977Z","updatedAt":"2025-08-01T00:29:02.977Z","isActive":true,"crops":["Steel","Wooden"],"farmPhotos":["https://example.com/farm1.jpg","https://example.com/farm2.jpg"],"isUssd":false},{"id":1808,"yemertId":"YM-8564","timestamp":null,"fullName":"Orlando Bergnaum","gender":"male","region":null,"ageRange":"448-821","nationalIdNumber":"76749214276","email":"Kade_Cummings61@hotmail.com","phoneNumber":"+974-209-3089","mobileMoney":null,"provider":"NONE","whatsappNumber":"+842-579-0032","homeAddress":"346 McKenzie Burg","countyDistrict":"Saint Pierre and Miquelon","country":"Belarus","farmLocation":"Parisianton","farmSize":5.2,"actualFarmSize":"5.2 hectares","landOwnershipStatus":"Owned","yearsFarmingExperience":"10","averageAnnualYield":"20 tons","farmingPractices":"Organic farming, Mixed cropping","annualFarmingRevenue":"₦3,000,000","accessToCredit":"Yes","previousInsurance":"No","produceSaleLocation":"Local market","financialChallenge":"High input cost","recentChallenges":"Flooding, Pest invasion","soilManagement":"Crop rotation, Compost use","irrigationAccess":true,"climateResilientProgram":true,"sustainablePractices":"Use of compost, minimal tillage","carbonCreditProgram":false,"cropInsuranceInterest":true,"paymentFrequency":"Quarterly","insuranceConcerns":"High premium cost","recommendInsurance":"Yes, to fellow farmers","dataConsent":true,"createdAt":"2025-08-01T00:29:02.976Z","updatedAt":"2025-08-01T00:29:02.976Z","isActive":true,"crops":["Concrete","Fresh"],"farmPhotos":["https://example.com/farm1.jpg","https://example.com/farm2.jpg"],"isUssd":false},{"id":1807,"yemertId":"YM-9527","timestamp":null,"fullName":"Freda Collier","gender":"male","region":null,"ageRange":"521-725","nationalIdNumber":"37226759339","email":"Noemy.Grimes@gmail.com","phoneNumber":"+416-904-5168","mobileMoney":null,"provider":"NONE","whatsappNumber":"+207-405-4523","homeAddress":"457 Reina Courts","countyDistrict":"Haiti","country":"Dominican Republic","farmLocation":"West Emmiefurt","farmSize":5.2,"actualFarmSize":"5.2 hectares","landOwnershipStatus":"Owned","yearsFarmingExperience":"10","averageAnnualYield":"20 tons","farmingPractices":"Organic farming, Mixed cropping","annualFarmingRevenue":"₦3,000,000","accessToCredit":"Yes","previousInsurance":"No","produceSaleLocation":"Local market","financialChallenge":"High input cost","recentChallenges":"Flooding, Pest invasion","soilManagement":"Crop rotation, Compost use","irrigationAccess":true,"climateResilientProgram":true,"sustainablePractices":"Use of compost, minimal tillage","carbonCreditProgram":false,"cropInsuranceInterest":true,"paymentFrequency":"Quarterly","insuranceConcerns":"High premium cost","recommendInsurance":"Yes, to fellow farmers","dataConsent":true,"createdAt":"2025-08-01T00:29:02.974Z","updatedAt":"2025-08-01T00:29:02.974Z","isActive":true,"crops":["Granite","Fresh"],"farmPhotos":["https://example.com/farm1.jpg","https://example.com/farm2.jpg"],"isUssd":false},{"id":1806,"yemertId":"YM-5257","timestamp":null,"fullName":"Marc O'Connell","gender":null,"region":null,"ageRange":null,"nationalIdNumber":null,"email":null,"phoneNumber":null,"mobileMoney":null,"provider":"NONE","whatsappNumber":null,"homeAddress":null,"countyDistrict":null,"country":null,"farmLocation":null,"farmSize":null,"actualFarmSize":null,"landOwnershipStatus":null,"yearsFarmingExperience":null,"averageAnnualYield":null,"farmingPractices":"Local farming","annualFarmingRevenue":null,"accessToCredit":"not common","previousInsurance":"not common","produceSaleLocation":"local market","financialChallenge":null,"recentChallenges":null,"soilManagement":null,"irrigationAccess":false,"climateResilientProgram":false,"sustainablePractices":null,"carbonCreditProgram":false,"cropInsuranceInterest":false,"paymentFrequency":null,"insuranceConcerns":null,"recommendInsurance":null,"dataConsent":false,"createdAt":"2025-08-01T00:29:02.233Z","updatedAt":"2025-08-01T00:29:02.233Z","isActive":true,"crops":["Concrete","Cotton"],"farmPhotos":["https://example.com/farm1.jpg","https://example.com/farm2.jpg"],"isUssd":false},{"id":1805,"yemertId":"YM-2063","timestamp":null,"fullName":"Gabriel Little PhD","gender":"male","region":null,"ageRange":"113-206","nationalIdNumber":"726223423889","email":"Marlene.Lindgren30@hotmail.com","phoneNumber":"+908-491-7632","mobileMoney":null,"provider":"NONE","whatsappNumber":"+784-948-2536","homeAddress":"34015 Quinten Mission","countyDistrict":"Guinea","country":"Nigeria","farmLocation":"West Salmamouth","farmSize":5.2,"actualFarmSize":"5.2 hectares","landOwnershipStatus":"Owned","yearsFarmingExperience":"10","averageAnnualYield":"20 tons","farmingPractices":"Organic farming, Mixed cropping","annualFarmingRevenue":"₦3,000,000","accessToCredit":"Yes","previousInsurance":"No","produceSaleLocation":"Local market","financialChallenge":"High input cost","recentChallenges":"Flooding, Pest invasion","soilManagement":"Crop rotation, Compost use","irrigationAccess":true,"climateResilientProgram":true,"sustainablePractices":"Use of compost, minimal tillage","carbonCreditProgram":false,"cropInsuranceInterest":true,"paymentFrequency":"Quarterly","insuranceConcerns":"High premium cost","recommendInsurance":"Yes, to fellow farmers","dataConsent":true,"createdAt":"2025-08-01T00:28:47.881Z","updatedAt":"2025-08-01T00:28:47.881Z","isActive":true,"crops":["Wooden","Wooden"],"farmPhotos":["https://example.com/farm1.jpg","https://example.com/farm2.jpg"],"isUssd":false},{"id":1804,"yemertId":"YM-6556","timestamp":null,"fullName":"Loren O'Reilly","gender":"male","region":null,"ageRange":"641-443","nationalIdNumber":"49581906496","email":"Salvatore.Tillman@gmail.com","phoneNumber":"+613-467-9730","mobileMoney":null,"provider":"NONE","whatsappNumber":"+324-564-3056","homeAddress":"59153 Mueller Port","countyDistrict":"Russian Federation","country":"Malaysia","farmLocation":"East Megane","farmSize":5.2,"actualFarmSize":"5.2 hectares","landOwnershipStatus":"Owned","yearsFarmingExperience":"10","averageAnnualYield":"20 tons","farmingPractices":"Organic farming, Mixed cropping","annualFarmingRevenue":"₦3,000,000","accessToCredit":"Yes","previousInsurance":"No","produceSaleLocation":"Local market","financialChallenge":"High input cost","recentChallenges":"Flooding, Pest invasion","soilManagement":"Crop rotation, Compost use","irrigationAccess":true,"climateResilientProgram":true,"sustainablePractices":"Use of compost, minimal tillage","carbonCreditProgram":false,"cropInsuranceInterest":true,"paymentFrequency":"Quarterly","insuranceConcerns":"High premium cost","recommendInsurance":"Yes, to fellow farmers","dataConsent":true,"createdAt":"2025-08-01T00:28:47.880Z","updatedAt":"2025-08-01T00:28:47.880Z","isActive":true,"crops":["Cotton","Fresh"],"farmPhotos":["https://example.com/farm1.jpg","https://example.com/farm2.jpg"],"isUssd":false},{"id":1803,"yemertId":"YM-2411","timestamp":null,"fullName":"Tracey Will","gender":"male","region":null,"ageRange":"720-836","nationalIdNumber":"162577983175","email":"Elenor_Marvin91@yahoo.com","phoneNumber":"+797-958-5822","mobileMoney":null,"provider":"NONE","whatsappNumber":"+892-952-0026","homeAddress":"42595 Stokes Isle","countyDistrict":"Costa Rica","country":"Sri Lanka","farmLocation":"Port Dewayne","farmSize":5.2,"actualFarmSize":"5.2 hectares","landOwnershipStatus":"Owned","yearsFarmingExperience":"10","averageAnnualYield":"20 tons","farmingPractices":"Organic farming, Mixed cropping","annualFarmingRevenue":"₦3,000,000","accessToCredit":"Yes","previousInsurance":"No","produceSaleLocation":"Local market","financialChallenge":"High input cost","recentChallenges":"Flooding, Pest invasion","soilManagement":"Crop rotation, Compost use","irrigationAccess":true,"climateResilientProgram":true,"sustainablePractices":"Use of compost, minimal tillage","carbonCreditProgram":false,"cropInsuranceInterest":true,"paymentFrequency":"Quarterly","insuranceConcerns":"High premium cost","recommendInsurance":"Yes, to fellow farmers","dataConsent":true,"createdAt":"2025-08-01T00:28:47.879Z","updatedAt":"2025-08-01T00:28:47.879Z","isActive":true,"crops":["Soft","Wooden"],"farmPhotos":["https://example.com/farm1.jpg","https://example.com/farm2.jpg"],"isUssd":false},{"id":1802,"yemertId":"YM-5262","timestamp":null,"fullName":"Virginia Kemmer","gender":"male","region":null,"ageRange":"964-447","nationalIdNumber":"224209693362","email":"Oscar44@yahoo.com","phoneNumber":"+807-814-3783","mobileMoney":null,"provider":"NONE","whatsappNumber":"+354-405-1208","homeAddress":"34781 Price Grove","countyDistrict":"Kiribati","country":"Mauritania","farmLocation":"Santa Clarita","farmSize":5.2,"actualFarmSize":"5.2 hectares","landOwnershipStatus":"Owned","yearsFarmingExperience":"10","averageAnnualYield":"20 tons","farmingPractices":"Organic farming, Mixed cropping","annualFarmingRevenue":"₦3,000,000","accessToCredit":"Yes","previousInsurance":"No","produceSaleLocation":"Local market","financialChallenge":"High input cost","recentChallenges":"Flooding, Pest invasion","soilManagement":"Crop rotation, Compost use","irrigationAccess":true,"climateResilientProgram":true,"sustainablePractices":"Use of compost, minimal tillage","carbonCreditProgram":false,"cropInsuranceInterest":true,"paymentFrequency":"Quarterly","insuranceConcerns":"High premium cost","recommendInsurance":"Yes, to fellow farmers","dataConsent":true,"createdAt":"2025-08-01T00:28:47.878Z","updatedAt":"2025-08-01T00:28:47.878Z","isActive":true,"crops":["Fresh","Wooden"],"farmPhotos":["https://example.com/farm1.jpg","https://example.com/farm2.jpg"],"isUssd":false},{"id":1801,"yemertId":"YM-5331","timestamp":null,"fullName":"Duane Osinski","gender":"male","region":null,"ageRange":"819-862","nationalIdNumber":"540438606724","email":"Nolan95@gmail.com","phoneNumber":"+747-501-9836","mobileMoney":null,"provider":"NONE","whatsappNumber":"+770-286-4928","homeAddress":"640 Yesenia Rue","countyDistrict":"Vanuatu","country":"Zambia","farmLocation":"East Feliciastad","farmSize":5.2,"actualFarmSize":"5.2 hectares","landOwnershipStatus":"Owned","yearsFarmingExperience":"10","averageAnnualYield":"20 tons","farmingPractices":"Organic farming, Mixed cropping","annualFarmingRevenue":"₦3,000,000","accessToCredit":"Yes","previousInsurance":"No","produceSaleLocation":"Local market","financialChallenge":"High input cost","recentChallenges":"Flooding, Pest invasion","soilManagement":"Crop rotation, Compost use","irrigationAccess":true,"climateResilientProgram":true,"sustainablePractices":"Use of compost, minimal tillage","carbonCreditProgram":false,"cropInsuranceInterest":true,"paymentFrequency":"Quarterly","insuranceConcerns":"High premium cost","recommendInsurance":"Yes, to fellow farmers","dataConsent":true,"createdAt":"2025-08-01T00:28:47.876Z","updatedAt":"2025-08-01T00:28:47.876Z","isActive":true,"crops":["Plastic","Plastic"],"farmPhotos":["https://example.com/farm1.jpg","https://example.com/farm2.jpg"],"isUssd":false},{"id":1800,"yemertId":"YM-8806","timestamp":null,"fullName":"Lonnie McCullough","gender":null,"region":null,"ageRange":null,"nationalIdNumber":null,"email":null,"phoneNumber":null,"mobileMoney":null,"provider":"NONE","whatsappNumber":null,"homeAddress":null,"countyDistrict":null,"country":null,"farmLocation":null,"farmSize":null,"actualFarmSize":null,"landOwnershipStatus":null,"yearsFarmingExperience":null,"averageAnnualYield":null,"farmingPractices":"Local farming","annualFarmingRevenue":null,"accessToCredit":"not common","previousInsurance":"not common","produceSaleLocation":"local market","financialChallenge":null,"recentChallenges":null,"soilManagement":null,"irrigationAccess":false,"climateResilientProgram":false,"sustainablePractices":null,"carbonCreditProgram":false,"cropInsuranceInterest":false,"paymentFrequency":null,"insuranceConcerns":null,"recommendInsurance":null,"dataConsent":false,"createdAt":"2025-08-01T00:28:46.161Z","updatedAt":"2025-08-01T00:28:46.161Z","isActive":true,"crops":["Cotton","Fresh"],"farmPhotos":["https://example.com/farm1.jpg","https://example.com/farm2.jpg"],"isUssd":false},{"id":1798,"yemertId":"YM-7249","timestamp":null,"fullName":"Jimmie Brown","gender":"male","region":null,"ageRange":"393-755","nationalIdNumber":"36273323270","email":"Rigoberto93@gmail.com","phoneNumber":"+454-686-7209","mobileMoney":null,"provider":"NONE","whatsappNumber":"+900-291-0552","homeAddress":"94599 Auer Ferry","countyDistrict":"Turks and Caicos Islands","country":"Uruguay","farmLocation":"Heidenreichland","farmSize":5.2,"actualFarmSize":"5.2 hectares","landOwnershipStatus":"Owned","yearsFarmingExperience":"10","averageAnnualYield":"20 tons","farmingPractices":"Organic farming, Mixed cropping","annualFarmingRevenue":"₦3,000,000","accessToCredit":"Yes","previousInsurance":"No","produceSaleLocation":"Local market","financialChallenge":"High input cost","recentChallenges":"Flooding, Pest invasion","soilManagement":"Crop rotation, Compost use","irrigationAccess":true,"climateResilientProgram":true,"sustainablePractices":"Use of compost, minimal tillage","carbonCreditProgram":false,"cropInsuranceInterest":true,"paymentFrequency":"Quarterly","insuranceConcerns":"High premium cost","recommendInsurance":"Yes, to fellow farmers","dataConsent":true,"createdAt":"2025-07-31T23:49:00.727Z","updatedAt":"2025-07-31T23:49:00.727Z","isActive":true,"crops":["Rubber","Wooden"],"farmPhotos":["https://example.com/farm1.jpg","https://example.com/farm2.jpg"],"isUssd":false},{"id":1799,"yemertId":"YM-3384","timestamp":null,"fullName":"Dr. Jermaine Hahn","gender":"male","region":null,"ageRange":"445-470","nationalIdNumber":"862774983689","email":"Hadley8@gmail.com","phoneNumber":"+320-342-2190","mobileMoney":null,"provider":"NONE","whatsappNumber":"+567-528-4455","homeAddress":"1105 Harvey Mission","countyDistrict":"Lebanon","country":"Turkey","farmLocation":"Riverside","farmSize":5.2,"actualFarmSize":"5.2 hectares","landOwnershipStatus":"Owned","yearsFarmingExperience":"10","averageAnnualYield":"20 tons","farmingPractices":"Organic farming, Mixed cropping","annualFarmingRevenue":"₦3,000,000","accessToCredit":"Yes","previousInsurance":"No","produceSaleLocation":"Local market","financialChallenge":"High input cost","recentChallenges":"Flooding, Pest invasion","soilManagement":"Crop rotation, Compost use","irrigationAccess":true,"climateResilientProgram":true,"sustainablePractices":"Use of compost, minimal tillage","carbonCreditProgram":false,"cropInsuranceInterest":true,"paymentFrequency":"Quarterly","insuranceConcerns":"High premium cost","recommendInsurance":"Yes, to fellow farmers","dataConsent":true,"createdAt":"2025-07-31T23:49:00.727Z","updatedAt":"2025-07-31T23:49:00.727Z","isActive":true,"crops":["Fresh","Plastic"],"farmPhotos":["https://example.com/farm1.jpg","https://example.com/farm2.jpg"],"isUssd":false},{"id":1795,"yemertId":"YM-3371","timestamp":null,"fullName":"Isaac Cronin","gender":"male","region":null,"ageRange":"930-845","nationalIdNumber":"109624507272","email":"Desmond25@gmail.com","phoneNumber":"+874-207-7074","mobileMoney":null,"provider":"NONE","whatsappNumber":"+276-753-1492","homeAddress":"33641 Carter Trail","countyDistrict":"Germany","country":"India","farmLocation":"Bashirianport","farmSize":5.2,"actualFarmSize":"5.2 hectares","landOwnershipStatus":"Owned","yearsFarmingExperience":"10","averageAnnualYield":"20 tons","farmingPractices":"Organic farming, Mixed cropping","annualFarmingRevenue":"₦3,000,000","accessToCredit":"Yes","previousInsurance":"No","produceSaleLocation":"Local market","financialChallenge":"High input cost","recentChallenges":"Flooding, Pest invasion","soilManagement":"Crop rotation, Compost use","irrigationAccess":true,"climateResilientProgram":true,"sustainablePractices":"Use of compost, minimal tillage","carbonCreditProgram":false,"cropInsuranceInterest":true,"paymentFrequency":"Quarterly","insuranceConcerns":"High premium cost","recommendInsurance":"Yes, to fellow farmers","dataConsent":true,"createdAt":"2025-07-31T23:49:00.726Z","updatedAt":"2025-07-31T23:49:00.726Z","isActive":true,"crops":["Cotton","Frozen"],"farmPhotos":["https://example.com/farm1.jpg","https://example.com/farm2.jpg"],"isUssd":false},{"id":1797,"yemertId":"YM-4053","timestamp":null,"fullName":"Alonzo Orn","gender":"male","region":null,"ageRange":"694-121","nationalIdNumber":"49062480802","email":"Candace_Hickle@gmail.com","phoneNumber":"+475-904-9796","mobileMoney":null,"provider":"NONE","whatsappNumber":"+715-529-6424","homeAddress":"111 Kessler Ramp","countyDistrict":"Montenegro","country":"Thailand","farmLocation":"Westfield","farmSize":5.2,"actualFarmSize":"5.2 hectares","landOwnershipStatus":"Owned","yearsFarmingExperience":"10","averageAnnualYield":"20 tons","farmingPractices":"Organic farming, Mixed cropping","annualFarmingRevenue":"₦3,000,000","accessToCredit":"Yes","previousInsurance":"No","produceSaleLocation":"Local market","financialChallenge":"High input cost","recentChallenges":"Flooding, Pest invasion","soilManagement":"Crop rotation, Compost use","irrigationAccess":true,"climateResilientProgram":true,"sustainablePractices":"Use of compost, minimal tillage","carbonCreditProgram":false,"cropInsuranceInterest":true,"paymentFrequency":"Quarterly","insuranceConcerns":"High premium cost","recommendInsurance":"Yes, to fellow farmers","dataConsent":true,"createdAt":"2025-07-31T23:49:00.725Z","updatedAt":"2025-07-31T23:49:00.725Z","isActive":true,"crops":["Wooden","Wooden"],"farmPhotos":["https://example.com/farm1.jpg","https://example.com/farm2.jpg"],"isUssd":false},{"id":1796,"yemertId":"YM-4784","timestamp":null,"fullName":"Jesse Parisian","gender":"male","region":null,"ageRange":"742-412","nationalIdNumber":"199718851633","email":"Bret28@yahoo.com","phoneNumber":"+570-762-6152","mobileMoney":null,"provider":"NONE","whatsappNumber":"+611-398-3140","homeAddress":"868 Domenica Drives","countyDistrict":"Burundi","country":"Slovakia (Slovak Republic)","farmLocation":"New Erik","farmSize":5.2,"actualFarmSize":"5.2 hectares","landOwnershipStatus":"Owned","yearsFarmingExperience":"10","averageAnnualYield":"20 tons","farmingPractices":"Organic farming, Mixed cropping","annualFarmingRevenue":"₦3,000,000","accessToCredit":"Yes","previousInsurance":"No","produceSaleLocation":"Local market","financialChallenge":"High input cost","recentChallenges":"Flooding, Pest invasion","soilManagement":"Crop rotation, Compost use","irrigationAccess":true,"climateResilientProgram":true,"sustainablePractices":"Use of compost, minimal tillage","carbonCreditProgram":false,"cropInsuranceInterest":true,"paymentFrequency":"Quarterly","insuranceConcerns":"High premium cost","recommendInsurance":"Yes, to fellow farmers","dataConsent":true,"createdAt":"2025-07-31T23:49:00.722Z","updatedAt":"2025-07-31T23:49:00.722Z","isActive":true,"crops":["Rubber","Plastic"],"farmPhotos":["https://example.com/farm1.jpg","https://example.com/farm2.jpg"],"isUssd":false},{"id":1794,"yemertId":"YM-6244","timestamp":null,"fullName":"Ms. Darla Blanda","gender":null,"region":null,"ageRange":null,"nationalIdNumber":null,"email":null,"phoneNumber":null,"mobileMoney":null,"provider":"NONE","whatsappNumber":null,"homeAddress":null,"countyDistrict":null,"country":null,"farmLocation":null,"farmSize":null,"actualFarmSize":null,"landOwnershipStatus":null,"yearsFarmingExperience":null,"averageAnnualYield":null,"farmingPractices":"Local farming","annualFarmingRevenue":null,"accessToCredit":"not common","previousInsurance":"not common","produceSaleLocation":"local market","financialChallenge":null,"recentChallenges":null,"soilManagement":null,"irrigationAccess":false,"climateResilientProgram":false,"sustainablePractices":null,"carbonCreditProgram":false,"cropInsuranceInterest":false,"paymentFrequency":null,"insuranceConcerns":null,"recommendInsurance":null,"dataConsent":false,"createdAt":"2025-07-31T23:48:59.493Z","updatedAt":"2025-07-31T23:48:59.493Z","isActive":true,"crops":["Concrete","Cotton"],"farmPhotos":["https://example.com/farm1.jpg","https://example.com/farm2.jpg"],"isUssd":false},{"id":1792,"yemertId":"YM-3437","timestamp":null,"fullName":"Lena Dietrich Jr.","gender":"male","region":null,"ageRange":"681-360","nationalIdNumber":"912767952497","email":"Ezekiel_Nicolas16@yahoo.com","phoneNumber":"+373-502-7201","mobileMoney":null,"provider":"NONE","whatsappNumber":"+537-489-9270","homeAddress":"885 Towne Prairie","countyDistrict":"Tajikistan","country":"Sao Tome and Principe","farmLocation":"The Hammocks","farmSize":5.2,"actualFarmSize":"5.2 hectares","landOwnershipStatus":"Owned","yearsFarmingExperience":"10","averageAnnualYield":"20 tons","farmingPractices":"Organic farming, Mixed cropping","annualFarmingRevenue":"₦3,000,000","accessToCredit":"Yes","previousInsurance":"No","produceSaleLocation":"Local market","financialChallenge":"High input cost","recentChallenges":"Flooding, Pest invasion","soilManagement":"Crop rotation, Compost use","irrigationAccess":true,"climateResilientProgram":true,"sustainablePractices":"Use of compost, minimal tillage","carbonCreditProgram":false,"cropInsuranceInterest":true,"paymentFrequency":"Quarterly","insuranceConcerns":"High premium cost","recommendInsurance":"Yes, to fellow farmers","dataConsent":true,"createdAt":"2025-07-31T22:34:40.505Z","updatedAt":"2025-07-31T22:34:40.505Z","isActive":true,"crops":["Metal","Steel"],"farmPhotos":["https://example.com/farm1.jpg","https://example.com/farm2.jpg"],"isUssd":false},{"id":1793,"yemertId":"YM-6521","timestamp":null,"fullName":"Danny Homenick","gender":"male","region":null,"ageRange":"164-969","nationalIdNumber":"991761281819","email":"Florence66@gmail.com","phoneNumber":"+838-416-5179","mobileMoney":null,"provider":"NONE","whatsappNumber":"+482-752-7955","homeAddress":"19585 Jarred Park","countyDistrict":"Palestinian Territory","country":"Venezuela","farmLocation":"North Maximus","farmSize":5.2,"actualFarmSize":"5.2 hectares","landOwnershipStatus":"Owned","yearsFarmingExperience":"10","averageAnnualYield":"20 tons","farmingPractices":"Organic farming, Mixed cropping","annualFarmingRevenue":"₦3,000,000","accessToCredit":"Yes","previousInsurance":"No","produceSaleLocation":"Local market","financialChallenge":"High input cost","recentChallenges":"Flooding, Pest invasion","soilManagement":"Crop rotation, Compost use","irrigationAccess":true,"climateResilientProgram":true,"sustainablePractices":"Use of compost, minimal tillage","carbonCreditProgram":false,"cropInsuranceInterest":true,"paymentFrequency":"Quarterly","insuranceConcerns":"High premium cost","recommendInsurance":"Yes, to fellow farmers","dataConsent":true,"createdAt":"2025-07-31T22:34:40.505Z","updatedAt":"2025-07-31T22:34:40.505Z","isActive":true,"crops":["Rubber","Granite"],"farmPhotos":["https://example.com/farm1.jpg","https://example.com/farm2.jpg"],"isUssd":false}],"pagination":{"total":139,"page":1,"limit":20,"totalPages":7}}}