{"success":true,"message":"Farmers fetched successfully","data":{"farmers":[{"id":1818,"yemertId":"YM-7828","timestamp":null,"fullName":"Jimmie Waelchi","gender":"male","region":null,"ageRange":"288-742","nationalIdNumber":"55153595669","email":"Kale_Boehm93@gmail.com","phoneNumber":"+852-851-9480","mobileMoney":null,"provider":"NONE","whatsappNumber":"+942-689-0076","homeAddress":"7183 Emmerich Junctions","countyDistrict":"Turks and Caicos Islands","country":"Belarus","farmLocation":"Lake Tayafurt","farmSize":5.2,"actualFarmSize":"5.2 hectares","landOwnershipStatus":"Owned","yearsFarmingExperience":"10","averageAnnualYield":"20 tons","farmingPractices":"Organic farming, Mixed cropping","annualFarmingRevenue":"₦3,000,000","accessToCredit":"Yes","previousInsurance":"No","produceSaleLocation":"Local market","financialChallenge":"High input cost","recentChallenges":"Flooding, Pest invasion","soilManagement":"Crop rotation, Compost use","irrigationAccess":true,"climateResilientProgram":true,"sustainablePractices":"Use of compost, minimal tillage","carbonCreditProgram":false,"cropInsuranceInterest":true,"paymentFrequency":"Quarterly","insuranceConcerns":"High premium cost","recommendInsurance":"Yes, to fellow farmers","dataConsent":true,"createdAt":"2025-08-01T20:43:52.366Z","updatedAt":"2025-08-01T20:43:52.366Z","isActive":true,"crops":["Metal","Soft"],"farmPhotos":["https://example.com/farm1.jpg","https://example.com/farm2.jpg"],"isUssd":false},{"id":1817,"yemertId":"YM-2189","timestamp":null,"fullName":"Willie Wiza","gender":"male","region":null,"ageRange":"63-600","nationalIdNumber":"430875934947","email":"Americo63@yahoo.com","phoneNumber":"+824-319-2113","mobileMoney":null,"provider":"NONE","whatsappNumber":"+679-542-5114","homeAddress":"038 Mertz Field","countyDistrict":"Palau","country":"Cameroon","farmLocation":"Augustineview","farmSize":5.2,"actualFarmSize":"5.2 hectares","landOwnershipStatus":"Owned","yearsFarmingExperience":"10","averageAnnualYield":"20 tons","farmingPractices":"Organic farming, Mixed cropping","annualFarmingRevenue":"₦3,000,000","accessToCredit":"Yes","previousInsurance":"No","produceSaleLocation":"Local market","financialChallenge":"High input cost","recentChallenges":"Flooding, Pest invasion","soilManagement":"Crop rotation, Compost use","irrigationAccess":true,"climateResilientProgram":true,"sustainablePractices":"Use of compost, minimal tillage","carbonCreditProgram":false,"cropInsuranceInterest":true,"paymentFrequency":"Quarterly","insuranceConcerns":"High premium cost","recommendInsurance":"Yes, to fellow farmers","dataConsent":true,"createdAt":"2025-08-01T20:43:52.366Z","updatedAt":"2025-08-01T20:43:52.366Z","isActive":true,"crops":["Concrete","Rubber"],"farmPhotos":["https://example.com/farm1.jpg","https://example.com/farm2.jpg"],"isUssd":false},{"id":1816,"yemertId":"YM-3557","timestamp":null,"fullName":"Tony Hackett","gender":"male","region":null,"ageRange":"178-600","nationalIdNumber":"224161183353","email":"Kip_Goldner@hotmail.com","phoneNumber":"+809-625-0955","mobileMoney":null,"provider":"NONE","whatsappNumber":"+745-647-9862","homeAddress":"333 Lisa Square","countyDistrict":"Finland","country":"Estonia","farmLocation":"Rowlett","farmSize":5.2,"actualFarmSize":"5.2 hectares","landOwnershipStatus":"Owned","yearsFarmingExperience":"10","averageAnnualYield":"20 tons","farmingPractices":"Organic farming, Mixed cropping","annualFarmingRevenue":"₦3,000,000","accessToCredit":"Yes","previousInsurance":"No","produceSaleLocation":"Local market","financialChallenge":"High input cost","recentChallenges":"Flooding, Pest invasion","soilManagement":"Crop rotation, Compost use","irrigationAccess":true,"climateResilientProgram":true,"sustainablePractices":"Use of compost, minimal tillage","carbonCreditProgram":false,"cropInsuranceInterest":true,"paymentFrequency":"Quarterly","insuranceConcerns":"High premium cost","recommendInsurance":"Yes, to fellow farmers","dataConsent":true,"createdAt":"2025-08-01T20:43:52.364Z","updatedAt":"2025-08-01T20:43:52.364Z","isActive":true,"crops":["Soft","Soft"],"farmPhotos":["https://example.com/farm1.jpg","https://example.com/farm2.jpg"],"isUssd":false},{"id":1815,"yemertId":"YM-3272","timestamp":null,"fullName":"Mr. Kelly Jenkins","gender":"male","region":null,"ageRange":"519-902","nationalIdNumber":"951241549892","email":"Amelie6@gmail.com","phoneNumber":"+954-435-1981","mobileMoney":null,"provider":"NONE","whatsappNumber":"+546-971-7389","homeAddress":"3328 Elbert Stream","countyDistrict":"Palau","country":"Pitcairn Islands","farmLocation":"Donnellychester","farmSize":5.2,"actualFarmSize":"5.2 hectares","landOwnershipStatus":"Owned","yearsFarmingExperience":"10","averageAnnualYield":"20 tons","farmingPractices":"Organic farming, Mixed cropping","annualFarmingRevenue":"₦3,000,000","accessToCredit":"Yes","previousInsurance":"No","produceSaleLocation":"Local market","financialChallenge":"High input cost","recentChallenges":"Flooding, Pest invasion","soilManagement":"Crop rotation, Compost use","irrigationAccess":true,"climateResilientProgram":true,"sustainablePractices":"Use of compost, minimal tillage","carbonCreditProgram":false,"cropInsuranceInterest":true,"paymentFrequency":"Quarterly","insuranceConcerns":"High premium cost","recommendInsurance":"Yes, to fellow farmers","dataConsent":true,"createdAt":"2025-08-01T20:43:52.363Z","updatedAt":"2025-08-01T20:43:52.363Z","isActive":true,"crops":["Plastic","Soft"],"farmPhotos":["https://example.com/farm1.jpg","https://example.com/farm2.jpg"],"isUssd":false},{"id":1814,"yemertId":"YM-4442","timestamp":null,"fullName":"Sarah Dach","gender":"male","region":null,"ageRange":"202-279","nationalIdNumber":"846874501512","email":"Liza_Hirthe6@yahoo.com","phoneNumber":"+652-878-2342","mobileMoney":null,"provider":"NONE","whatsappNumber":"+236-518-0832","homeAddress":"025 Deckow Unions","countyDistrict":"Trinidad and Tobago","country":"Gibraltar","farmLocation":"Luebury","farmSize":5.2,"actualFarmSize":"5.2 hectares","landOwnershipStatus":"Owned","yearsFarmingExperience":"10","averageAnnualYield":"20 tons","farmingPractices":"Organic farming, Mixed cropping","annualFarmingRevenue":"₦3,000,000","accessToCredit":"Yes","previousInsurance":"No","produceSaleLocation":"Local market","financialChallenge":"High input cost","recentChallenges":"Flooding, Pest invasion","soilManagement":"Crop rotation, Compost use","irrigationAccess":true,"climateResilientProgram":true,"sustainablePractices":"Use of compost, minimal tillage","carbonCreditProgram":false,"cropInsuranceInterest":true,"paymentFrequency":"Quarterly","insuranceConcerns":"High premium cost","recommendInsurance":"Yes, to fellow farmers","dataConsent":true,"createdAt":"2025-08-01T20:43:52.361Z","updatedAt":"2025-08-01T20:43:52.361Z","isActive":true,"crops":["Steel","Cotton"],"farmPhotos":["https://example.com/farm1.jpg","https://example.com/farm2.jpg"],"isUssd":false},{"id":1813,"yemertId":"YM-1825","timestamp":null,"fullName":"Wm Hartmann PhD","gender":null,"region":null,"ageRange":null,"nationalIdNumber":null,"email":null,"phoneNumber":null,"mobileMoney":null,"provider":"NONE","whatsappNumber":null,"homeAddress":null,"countyDistrict":null,"country":null,"farmLocation":null,"farmSize":null,"actualFarmSize":null,"landOwnershipStatus":null,"yearsFarmingExperience":null,"averageAnnualYield":null,"farmingPractices":"Local farming","annualFarmingRevenue":null,"accessToCredit":"not common","previousInsurance":"not common","produceSaleLocation":"local market","financialChallenge":null,"recentChallenges":null,"soilManagement":null,"irrigationAccess":false,"climateResilientProgram":false,"sustainablePractices":null,"carbonCreditProgram":false,"cropInsuranceInterest":false,"paymentFrequency":null,"insuranceConcerns":null,"recommendInsurance":null,"dataConsent":false,"createdAt":"2025-08-01T20:43:51.166Z","updatedAt":"2025-08-01T20:43:51.166Z","isActive":true,"crops":["Soft","Rubber"],"farmPhotos":["https://example.com/farm1.jpg","https://example.com/farm2.jpg"],"isUssd":false},{"id":1812,"yemertId":"YM-9857","timestamp":null,"fullName":"Fred Davis","gender":"male","region":null,"ageRange":"211-835","nationalIdNumber":"56615656423","email":"Zella.Koch@yahoo.com","phoneNumber":null,"mobileMoney":null,"provider":"NONE","whatsappNumber":"+489-204-1779","homeAddress":"395 Ryleigh Island","countyDistrict":"Tanzania","country":"France","farmLocation":"Seattle","farmSize":5.2,"actualFarmSize":"5.2 hectares","landOwnershipStatus":"Owned","yearsFarmingExperience":"10","averageAnnualYield":"20 tons","farmingPractices":"Organic farming, Mixed cropping","annualFarmingRevenue":"₦3,000,000","accessToCredit":"Yes","previousInsurance":"No","produceSaleLocation":"Local market","financialChallenge":"High input cost","recentChallenges":"Flooding, Pest invasion","soilManagement":"Crop rotation, Compost use","irrigationAccess":true,"climateResilientProgram":true,"sustainablePractices":"Use of compost, minimal tillage","carbonCreditProgram":false,"cropInsuranceInterest":true,"paymentFrequency":"Quarterly","insuranceConcerns":"High premium cost","recommendInsurance":"Yes, to fellow farmers","dataConsent":true,"createdAt":"2025-08-01T20:34:30.194Z","updatedAt":"2025-08-01T20:34:30.194Z","isActive":true,"crops":["Wooden","Metal"],"farmPhotos":["https://example.com/farm1.jpg","https://example.com/farm2.jpg"],"isUssd":false},{"id":1809,"yemertId":"YM-9228","timestamp":null,"fullName":"Cesar Ratke","gender":"male","region":null,"ageRange":"800-591","nationalIdNumber":"251889757882","email":"Genesis_Jacobson30@hotmail.com","phoneNumber":"+574-234-2941","mobileMoney":null,"provider":"NONE","whatsappNumber":"+379-410-7514","homeAddress":"14142 Tom Landing","countyDistrict":"Tuvalu","country":"Andorra","farmLocation":"Lake Reynoldfurt","farmSize":5.2,"actualFarmSize":"5.2 hectares","landOwnershipStatus":"Owned","yearsFarmingExperience":"10","averageAnnualYield":"20 tons","farmingPractices":"Organic farming, Mixed cropping","annualFarmingRevenue":"₦3,000,000","accessToCredit":"Yes","previousInsurance":"No","produceSaleLocation":"Local market","financialChallenge":"High input cost","recentChallenges":"Flooding, Pest invasion","soilManagement":"Crop rotation, Compost use","irrigationAccess":true,"climateResilientProgram":true,"sustainablePractices":"Use of compost, minimal tillage","carbonCreditProgram":false,"cropInsuranceInterest":true,"paymentFrequency":"Quarterly","insuranceConcerns":"High premium cost","recommendInsurance":"Yes, to fellow farmers","dataConsent":true,"createdAt":"2025-08-01T00:29:02.977Z","updatedAt":"2025-08-01T00:29:02.977Z","isActive":true,"crops":["Steel","Wooden"],"farmPhotos":["https://example.com/farm1.jpg","https://example.com/farm2.jpg"],"isUssd":false},{"id":1811,"yemertId":"YM-2057","timestamp":null,"fullName":"Valerie Rohan","gender":"male","region":null,"ageRange":"412-988","nationalIdNumber":"890975325496","email":"Mireille.Frami17@gmail.com","phoneNumber":"+280-752-9081","mobileMoney":null,"provider":"NONE","whatsappNumber":"+704-620-1081","homeAddress":"5810 Dexter Brooks","countyDistrict":"Saint Pierre and Miquelon","country":"South Georgia and the South Sandwich Islands","farmLocation":"North Geovanniview","farmSize":5.2,"actualFarmSize":"5.2 hectares","landOwnershipStatus":"Owned","yearsFarmingExperience":"10","averageAnnualYield":"20 tons","farmingPractices":"Organic farming, Mixed cropping","annualFarmingRevenue":"₦3,000,000","accessToCredit":"Yes","previousInsurance":"No","produceSaleLocation":"Local market","financialChallenge":"High input cost","recentChallenges":"Flooding, Pest invasion","soilManagement":"Crop rotation, Compost use","irrigationAccess":true,"climateResilientProgram":true,"sustainablePractices":"Use of compost, minimal tillage","carbonCreditProgram":false,"cropInsuranceInterest":true,"paymentFrequency":"Quarterly","insuranceConcerns":"High premium cost","recommendInsurance":"Yes, to fellow farmers","dataConsent":true,"createdAt":"2025-08-01T00:29:02.977Z","updatedAt":"2025-08-01T00:29:02.977Z","isActive":true,"crops":["Concrete","Frozen"],"farmPhotos":["https://example.com/farm1.jpg","https://example.com/farm2.jpg"],"isUssd":false},{"id":1810,"yemertId":"YM-6213","timestamp":null,"fullName":"Kyle Wiza","gender":"male","region":null,"ageRange":"943-817","nationalIdNumber":"554281186885","email":"Lenore.Wiza83@hotmail.com","phoneNumber":"+993-960-9060","mobileMoney":null,"provider":"NONE","whatsappNumber":"+580-904-1256","homeAddress":"1880 Dickinson Inlet","countyDistrict":"Kenya","country":"Benin","farmLocation":"West Juana","farmSize":5.2,"actualFarmSize":"5.2 hectares","landOwnershipStatus":"Owned","yearsFarmingExperience":"10","averageAnnualYield":"20 tons","farmingPractices":"Organic farming, Mixed cropping","annualFarmingRevenue":"₦3,000,000","accessToCredit":"Yes","previousInsurance":"No","produceSaleLocation":"Local market","financialChallenge":"High input cost","recentChallenges":"Flooding, Pest invasion","soilManagement":"Crop rotation, Compost use","irrigationAccess":true,"climateResilientProgram":true,"sustainablePractices":"Use of compost, minimal tillage","carbonCreditProgram":false,"cropInsuranceInterest":true,"paymentFrequency":"Quarterly","insuranceConcerns":"High premium cost","recommendInsurance":"Yes, to fellow farmers","dataConsent":true,"createdAt":"2025-08-01T00:29:02.977Z","updatedAt":"2025-08-01T00:29:02.977Z","isActive":true,"crops":["Soft","Metal"],"farmPhotos":["https://example.com/farm1.jpg","https://example.com/farm2.jpg"],"isUssd":false},{"id":1808,"yemertId":"YM-8564","timestamp":null,"fullName":"Orlando Bergnaum","gender":"male","region":null,"ageRange":"448-821","nationalIdNumber":"76749214276","email":"Kade_Cummings61@hotmail.com","phoneNumber":"+974-209-3089","mobileMoney":null,"provider":"NONE","whatsappNumber":"+842-579-0032","homeAddress":"346 McKenzie Burg","countyDistrict":"Saint Pierre and Miquelon","country":"Belarus","farmLocation":"Parisianton","farmSize":5.2,"actualFarmSize":"5.2 hectares","landOwnershipStatus":"Owned","yearsFarmingExperience":"10","averageAnnualYield":"20 tons","farmingPractices":"Organic farming, Mixed cropping","annualFarmingRevenue":"₦3,000,000","accessToCredit":"Yes","previousInsurance":"No","produceSaleLocation":"Local market","financialChallenge":"High input cost","recentChallenges":"Flooding, Pest invasion","soilManagement":"Crop rotation, Compost use","irrigationAccess":true,"climateResilientProgram":true,"sustainablePractices":"Use of compost, minimal tillage","carbonCreditProgram":false,"cropInsuranceInterest":true,"paymentFrequency":"Quarterly","insuranceConcerns":"High premium cost","recommendInsurance":"Yes, to fellow farmers","dataConsent":true,"createdAt":"2025-08-01T00:29:02.976Z","updatedAt":"2025-08-01T00:29:02.976Z","isActive":true,"crops":["Concrete","Fresh"],"farmPhotos":["https://example.com/farm1.jpg","https://example.com/farm2.jpg"],"isUssd":false},{"id":1807,"yemertId":"YM-9527","timestamp":null,"fullName":"Freda Collier","gender":"male","region":null,"ageRange":"521-725","nationalIdNumber":"37226759339","email":"Noemy.Grimes@gmail.com","phoneNumber":"+416-904-5168","mobileMoney":null,"provider":"NONE","whatsappNumber":"+207-405-4523","homeAddress":"457 Reina Courts","countyDistrict":"Haiti","country":"Dominican Republic","farmLocation":"West Emmiefurt","farmSize":5.2,"actualFarmSize":"5.2 hectares","landOwnershipStatus":"Owned","yearsFarmingExperience":"10","averageAnnualYield":"20 tons","farmingPractices":"Organic farming, Mixed cropping","annualFarmingRevenue":"₦3,000,000","accessToCredit":"Yes","previousInsurance":"No","produceSaleLocation":"Local market","financialChallenge":"High input cost","recentChallenges":"Flooding, Pest invasion","soilManagement":"Crop rotation, Compost use","irrigationAccess":true,"climateResilientProgram":true,"sustainablePractices":"Use of compost, minimal tillage","carbonCreditProgram":false,"cropInsuranceInterest":true,"paymentFrequency":"Quarterly","insuranceConcerns":"High premium cost","recommendInsurance":"Yes, to fellow farmers","dataConsent":true,"createdAt":"2025-08-01T00:29:02.974Z","updatedAt":"2025-08-01T00:29:02.974Z","isActive":true,"crops":["Granite","Fresh"],"farmPhotos":["https://example.com/farm1.jpg","https://example.com/farm2.jpg"],"isUssd":false},{"id":1806,"yemertId":"YM-5257","timestamp":null,"fullName":"Marc O'Connell","gender":null,"region":null,"ageRange":null,"nationalIdNumber":null,"email":null,"phoneNumber":null,"mobileMoney":null,"provider":"NONE","whatsappNumber":null,"homeAddress":null,"countyDistrict":null,"country":null,"farmLocation":null,"farmSize":null,"actualFarmSize":null,"landOwnershipStatus":null,"yearsFarmingExperience":null,"averageAnnualYield":null,"farmingPractices":"Local farming","annualFarmingRevenue":null,"accessToCredit":"not common","previousInsurance":"not common","produceSaleLocation":"local market","financialChallenge":null,"recentChallenges":null,"soilManagement":null,"irrigationAccess":false,"climateResilientProgram":false,"sustainablePractices":null,"carbonCreditProgram":false,"cropInsuranceInterest":false,"paymentFrequency":null,"insuranceConcerns":null,"recommendInsurance":null,"dataConsent":false,"createdAt":"2025-08-01T00:29:02.233Z","updatedAt":"2025-08-01T00:29:02.233Z","isActive":true,"crops":["Concrete","Cotton"],"farmPhotos":["https://example.com/farm1.jpg","https://example.com/farm2.jpg"],"isUssd":false},{"id":1805,"yemertId":"YM-2063","timestamp":null,"fullName":"Gabriel Little PhD","gender":"male","region":null,"ageRange":"113-206","nationalIdNumber":"726223423889","email":"Marlene.Lindgren30@hotmail.com","phoneNumber":"+908-491-7632","mobileMoney":null,"provider":"NONE","whatsappNumber":"+784-948-2536","homeAddress":"34015 Quinten Mission","countyDistrict":"Guinea","country":"Nigeria","farmLocation":"West Salmamouth","farmSize":5.2,"actualFarmSize":"5.2 hectares","landOwnershipStatus":"Owned","yearsFarmingExperience":"10","averageAnnualYield":"20 tons","farmingPractices":"Organic farming, Mixed cropping","annualFarmingRevenue":"₦3,000,000","accessToCredit":"Yes","previousInsurance":"No","produceSaleLocation":"Local market","financialChallenge":"High input cost","recentChallenges":"Flooding, Pest invasion","soilManagement":"Crop rotation, Compost use","irrigationAccess":true,"climateResilientProgram":true,"sustainablePractices":"Use of compost, minimal tillage","carbonCreditProgram":false,"cropInsuranceInterest":true,"paymentFrequency":"Quarterly","insuranceConcerns":"High premium cost","recommendInsurance":"Yes, to fellow farmers","dataConsent":true,"createdAt":"2025-08-01T00:28:47.881Z","updatedAt":"2025-08-01T00:28:47.881Z","isActive":true,"crops":["Wooden","Wooden"],"farmPhotos":["https://example.com/farm1.jpg","https://example.com/farm2.jpg"],"isUssd":false},{"id":1804,"yemertId":"YM-6556","timestamp":null,"fullName":"Loren O'Reilly","gender":"male","region":null,"ageRange":"641-443","nationalIdNumber":"49581906496","email":"Salvatore.Tillman@gmail.com","phoneNumber":"+613-467-9730","mobileMoney":null,"provider":"NONE","whatsappNumber":"+324-564-3056","homeAddress":"59153 Mueller Port","countyDistrict":"Russian Federation","country":"Malaysia","farmLocation":"East Megane","farmSize":5.2,"actualFarmSize":"5.2 hectares","landOwnershipStatus":"Owned","yearsFarmingExperience":"10","averageAnnualYield":"20 tons","farmingPractices":"Organic farming, Mixed cropping","annualFarmingRevenue":"₦3,000,000","accessToCredit":"Yes","previousInsurance":"No","produceSaleLocation":"Local market","financialChallenge":"High input cost","recentChallenges":"Flooding, Pest invasion","soilManagement":"Crop rotation, Compost use","irrigationAccess":true,"climateResilientProgram":true,"sustainablePractices":"Use of compost, minimal tillage","carbonCreditProgram":false,"cropInsuranceInterest":true,"paymentFrequency":"Quarterly","insuranceConcerns":"High premium cost","recommendInsurance":"Yes, to fellow farmers","dataConsent":true,"createdAt":"2025-08-01T00:28:47.880Z","updatedAt":"2025-08-01T00:28:47.880Z","isActive":true,"crops":["Cotton","Fresh"],"farmPhotos":["https://example.com/farm1.jpg","https://example.com/farm2.jpg"],"isUssd":false},{"id":1803,"yemertId":"YM-2411","timestamp":null,"fullName":"Tracey Will","gender":"male","region":null,"ageRange":"720-836","nationalIdNumber":"162577983175","email":"Elenor_Marvin91@yahoo.com","phoneNumber":"+797-958-5822","mobileMoney":null,"provider":"NONE","whatsappNumber":"+892-952-0026","homeAddress":"42595 Stokes Isle","countyDistrict":"Costa Rica","country":"Sri Lanka","farmLocation":"Port Dewayne","farmSize":5.2,"actualFarmSize":"5.2 hectares","landOwnershipStatus":"Owned","yearsFarmingExperience":"10","averageAnnualYield":"20 tons","farmingPractices":"Organic farming, Mixed cropping","annualFarmingRevenue":"₦3,000,000","accessToCredit":"Yes","previousInsurance":"No","produceSaleLocation":"Local market","financialChallenge":"High input cost","recentChallenges":"Flooding, Pest invasion","soilManagement":"Crop rotation, Compost use","irrigationAccess":true,"climateResilientProgram":true,"sustainablePractices":"Use of compost, minimal tillage","carbonCreditProgram":false,"cropInsuranceInterest":true,"paymentFrequency":"Quarterly","insuranceConcerns":"High premium cost","recommendInsurance":"Yes, to fellow farmers","dataConsent":true,"createdAt":"2025-08-01T00:28:47.879Z","updatedAt":"2025-08-01T00:28:47.879Z","isActive":true,"crops":["Soft","Wooden"],"farmPhotos":["https://example.com/farm1.jpg","https://example.com/farm2.jpg"],"isUssd":false},{"id":1802,"yemertId":"YM-5262","timestamp":null,"fullName":"Virginia Kemmer","gender":"male","region":null,"ageRange":"964-447","nationalIdNumber":"224209693362","email":"Oscar44@yahoo.com","phoneNumber":"+807-814-3783","mobileMoney":null,"provider":"NONE","whatsappNumber":"+354-405-1208","homeAddress":"34781 Price Grove","countyDistrict":"Kiribati","country":"Mauritania","farmLocation":"Santa Clarita","farmSize":5.2,"actualFarmSize":"5.2 hectares","landOwnershipStatus":"Owned","yearsFarmingExperience":"10","averageAnnualYield":"20 tons","farmingPractices":"Organic farming, Mixed cropping","annualFarmingRevenue":"₦3,000,000","accessToCredit":"Yes","previousInsurance":"No","produceSaleLocation":"Local market","financialChallenge":"High input cost","recentChallenges":"Flooding, Pest invasion","soilManagement":"Crop rotation, Compost use","irrigationAccess":true,"climateResilientProgram":true,"sustainablePractices":"Use of compost, minimal tillage","carbonCreditProgram":false,"cropInsuranceInterest":true,"paymentFrequency":"Quarterly","insuranceConcerns":"High premium cost","recommendInsurance":"Yes, to fellow farmers","dataConsent":true,"createdAt":"2025-08-01T00:28:47.878Z","updatedAt":"2025-08-01T00:28:47.878Z","isActive":true,"crops":["Fresh","Wooden"],"farmPhotos":["https://example.com/farm1.jpg","https://example.com/farm2.jpg"],"isUssd":false},{"id":1801,"yemertId":"YM-5331","timestamp":null,"fullName":"Duane Osinski","gender":"male","region":null,"ageRange":"819-862","nationalIdNumber":"540438606724","email":"Nolan95@gmail.com","phoneNumber":"+747-501-9836","mobileMoney":null,"provider":"NONE","whatsappNumber":"+770-286-4928","homeAddress":"640 Yesenia Rue","countyDistrict":"Vanuatu","country":"Zambia","farmLocation":"East Feliciastad","farmSize":5.2,"actualFarmSize":"5.2 hectares","landOwnershipStatus":"Owned","yearsFarmingExperience":"10","averageAnnualYield":"20 tons","farmingPractices":"Organic farming, Mixed cropping","annualFarmingRevenue":"₦3,000,000","accessToCredit":"Yes","previousInsurance":"No","produceSaleLocation":"Local market","financialChallenge":"High input cost","recentChallenges":"Flooding, Pest invasion","soilManagement":"Crop rotation, Compost use","irrigationAccess":true,"climateResilientProgram":true,"sustainablePractices":"Use of compost, minimal tillage","carbonCreditProgram":false,"cropInsuranceInterest":true,"paymentFrequency":"Quarterly","insuranceConcerns":"High premium cost","recommendInsurance":"Yes, to fellow farmers","dataConsent":true,"createdAt":"2025-08-01T00:28:47.876Z","updatedAt":"2025-08-01T00:28:47.876Z","isActive":true,"crops":["Plastic","Plastic"],"farmPhotos":["https://example.com/farm1.jpg","https://example.com/farm2.jpg"],"isUssd":false},{"id":1800,"yemertId":"YM-8806","timestamp":null,"fullName":"Lonnie McCullough","gender":null,"region":null,"ageRange":null,"nationalIdNumber":null,"email":null,"phoneNumber":null,"mobileMoney":null,"provider":"NONE","whatsappNumber":null,"homeAddress":null,"countyDistrict":null,"country":null,"farmLocation":null,"farmSize":null,"actualFarmSize":null,"landOwnershipStatus":null,"yearsFarmingExperience":null,"averageAnnualYield":null,"farmingPractices":"Local farming","annualFarmingRevenue":null,"accessToCredit":"not common","previousInsurance":"not common","produceSaleLocation":"local market","financialChallenge":null,"recentChallenges":null,"soilManagement":null,"irrigationAccess":false,"climateResilientProgram":false,"sustainablePractices":null,"carbonCreditProgram":false,"cropInsuranceInterest":false,"paymentFrequency":null,"insuranceConcerns":null,"recommendInsurance":null,"dataConsent":false,"createdAt":"2025-08-01T00:28:46.161Z","updatedAt":"2025-08-01T00:28:46.161Z","isActive":true,"crops":["Cotton","Fresh"],"farmPhotos":["https://example.com/farm1.jpg","https://example.com/farm2.jpg"],"isUssd":false},{"id":1798,"yemertId":"YM-7249","timestamp":null,"fullName":"Jimmie Brown","gender":"male","region":null,"ageRange":"393-755","nationalIdNumber":"36273323270","email":"Rigoberto93@gmail.com","phoneNumber":"+454-686-7209","mobileMoney":null,"provider":"NONE","whatsappNumber":"+900-291-0552","homeAddress":"94599 Auer Ferry","countyDistrict":"Turks and Caicos Islands","country":"Uruguay","farmLocation":"Heidenreichland","farmSize":5.2,"actualFarmSize":"5.2 hectares","landOwnershipStatus":"Owned","yearsFarmingExperience":"10","averageAnnualYield":"20 tons","farmingPractices":"Organic farming, Mixed cropping","annualFarmingRevenue":"₦3,000,000","accessToCredit":"Yes","previousInsurance":"No","produceSaleLocation":"Local market","financialChallenge":"High input cost","recentChallenges":"Flooding, Pest invasion","soilManagement":"Crop rotation, Compost use","irrigationAccess":true,"climateResilientProgram":true,"sustainablePractices":"Use of compost, minimal tillage","carbonCreditProgram":false,"cropInsuranceInterest":true,"paymentFrequency":"Quarterly","insuranceConcerns":"High premium cost","recommendInsurance":"Yes, to fellow farmers","dataConsent":true,"createdAt":"2025-07-31T23:49:00.727Z","updatedAt":"2025-07-31T23:49:00.727Z","isActive":true,"crops":["Rubber","Wooden"],"farmPhotos":["https://example.com/farm1.jpg","https://example.com/farm2.jpg"],"isUssd":false}],"pagination":{"total":146,"page":1,"limit":20,"totalPages":8}}}