{"success":true,"message":"Farmers fetched successfully","data":{"farmers":[{"id":1791,"yemertId":"YM-3042","timestamp":null,"fullName":"Lindsey Kulas","gender":"male","region":null,"ageRange":"867-821","nationalIdNumber":"28426855605","email":"Russ.Kertzmann@hotmail.com","phoneNumber":"+610-771-9300","mobileMoney":null,"provider":"NONE","whatsappNumber":"+331-833-0704","homeAddress":"8300 Mitchell Fort","countyDistrict":"Pakistan","country":"Guinea-Bissau","farmLocation":"West Ivory","farmSize":5.2,"actualFarmSize":"5.2 hectares","landOwnershipStatus":"Owned","yearsFarmingExperience":"10","averageAnnualYield":"20 tons","farmingPractices":"Organic farming, Mixed cropping","annualFarmingRevenue":"₦3,000,000","accessToCredit":"Yes","previousInsurance":"No","produceSaleLocation":"Local market","financialChallenge":"High input cost","recentChallenges":"Flooding, Pest invasion","soilManagement":"Crop rotation, Compost use","irrigationAccess":true,"climateResilientProgram":true,"sustainablePractices":"Use of compost, minimal tillage","carbonCreditProgram":false,"cropInsuranceInterest":true,"paymentFrequency":"Quarterly","insuranceConcerns":"High premium cost","recommendInsurance":"Yes, to fellow farmers","dataConsent":true,"createdAt":"2025-07-31T22:34:40.502Z","updatedAt":"2025-07-31T22:34:40.502Z","isActive":true,"crops":["Steel","Granite"],"farmPhotos":["https://example.com/farm1.jpg","https://example.com/farm2.jpg"],"isUssd":false},{"id":1789,"yemertId":"YM-4497","timestamp":null,"fullName":"Norman Gutmann","gender":"male","region":null,"ageRange":"507-953","nationalIdNumber":"140433270704","email":"Addie_Smitham@hotmail.com","phoneNumber":"+927-574-2758","mobileMoney":null,"provider":"NONE","whatsappNumber":"+305-796-2217","homeAddress":"13604 Christa Knolls","countyDistrict":"Burundi","country":"Namibia","farmLocation":"West Camylleberg","farmSize":5.2,"actualFarmSize":"5.2 hectares","landOwnershipStatus":"Owned","yearsFarmingExperience":"10","averageAnnualYield":"20 tons","farmingPractices":"Organic farming, Mixed cropping","annualFarmingRevenue":"₦3,000,000","accessToCredit":"Yes","previousInsurance":"No","produceSaleLocation":"Local market","financialChallenge":"High input cost","recentChallenges":"Flooding, Pest invasion","soilManagement":"Crop rotation, Compost use","irrigationAccess":true,"climateResilientProgram":true,"sustainablePractices":"Use of compost, minimal tillage","carbonCreditProgram":false,"cropInsuranceInterest":true,"paymentFrequency":"Quarterly","insuranceConcerns":"High premium cost","recommendInsurance":"Yes, to fellow farmers","dataConsent":true,"createdAt":"2025-07-31T22:34:40.499Z","updatedAt":"2025-07-31T22:34:40.499Z","isActive":true,"crops":["Steel","Frozen"],"farmPhotos":["https://example.com/farm1.jpg","https://example.com/farm2.jpg"],"isUssd":false},{"id":1788,"yemertId":"YM-9581","timestamp":null,"fullName":"Mr. Ernesto Schmidt","gender":null,"region":null,"ageRange":null,"nationalIdNumber":null,"email":null,"phoneNumber":null,"mobileMoney":null,"provider":"NONE","whatsappNumber":null,"homeAddress":null,"countyDistrict":null,"country":null,"farmLocation":null,"farmSize":null,"actualFarmSize":null,"landOwnershipStatus":null,"yearsFarmingExperience":null,"averageAnnualYield":null,"farmingPractices":"Local farming","annualFarmingRevenue":null,"accessToCredit":"not common","previousInsurance":"not common","produceSaleLocation":"local market","financialChallenge":null,"recentChallenges":null,"soilManagement":null,"irrigationAccess":false,"climateResilientProgram":false,"sustainablePractices":null,"carbonCreditProgram":false,"cropInsuranceInterest":false,"paymentFrequency":null,"insuranceConcerns":null,"recommendInsurance":null,"dataConsent":false,"createdAt":"2025-07-31T22:34:38.814Z","updatedAt":"2025-07-31T22:34:38.814Z","isActive":true,"crops":["Granite","Cotton"],"farmPhotos":["https://example.com/farm1.jpg","https://example.com/farm2.jpg"],"isUssd":false},{"id":1786,"yemertId":"YM-7276","timestamp":null,"fullName":"Roxanne Ziemann","gender":"male","region":null,"ageRange":"723-558","nationalIdNumber":"596380810","email":"Theo.Schimmel@yahoo.com","phoneNumber":"+574-795-9978","mobileMoney":null,"provider":"NONE","whatsappNumber":"+716-686-4216","homeAddress":"2903 Parisian Manor","countyDistrict":"Colombia","country":"Svalbard & Jan Mayen Islands","farmLocation":"Huelsfort","farmSize":5.2,"actualFarmSize":"5.2 hectares","landOwnershipStatus":"Owned","yearsFarmingExperience":"10","averageAnnualYield":"20 tons","farmingPractices":"Organic farming, Mixed cropping","annualFarmingRevenue":"₦3,000,000","accessToCredit":"Yes","previousInsurance":"No","produceSaleLocation":"Local market","financialChallenge":"High input cost","recentChallenges":"Flooding, Pest invasion","soilManagement":"Crop rotation, Compost use","irrigationAccess":true,"climateResilientProgram":true,"sustainablePractices":"Use of compost, minimal tillage","carbonCreditProgram":false,"cropInsuranceInterest":true,"paymentFrequency":"Quarterly","insuranceConcerns":"High premium cost","recommendInsurance":"Yes, to fellow farmers","dataConsent":true,"createdAt":"2025-07-27T19:19:27.280Z","updatedAt":"2025-07-27T19:19:27.280Z","isActive":true,"crops":["Concrete","Concrete"],"farmPhotos":[],"isUssd":false},{"id":1787,"yemertId":"YM-5470","timestamp":null,"fullName":"Salvatore Swift","gender":"male","region":null,"ageRange":"883-276","nationalIdNumber":"389557658613","email":"Anibal_Waelchi@hotmail.com","phoneNumber":"+635-539-6428","mobileMoney":null,"provider":"NONE","whatsappNumber":"+447-722-9311","homeAddress":"9653 Lincoln Causeway","countyDistrict":"Cameroon","country":"Mauritania","farmLocation":"New Ashleigh","farmSize":5.2,"actualFarmSize":"5.2 hectares","landOwnershipStatus":"Owned","yearsFarmingExperience":"10","averageAnnualYield":"20 tons","farmingPractices":"Organic farming, Mixed cropping","annualFarmingRevenue":"₦3,000,000","accessToCredit":"Yes","previousInsurance":"No","produceSaleLocation":"Local market","financialChallenge":"High input cost","recentChallenges":"Flooding, Pest invasion","soilManagement":"Crop rotation, Compost use","irrigationAccess":true,"climateResilientProgram":true,"sustainablePractices":"Use of compost, minimal tillage","carbonCreditProgram":false,"cropInsuranceInterest":true,"paymentFrequency":"Quarterly","insuranceConcerns":"High premium cost","recommendInsurance":"Yes, to fellow farmers","dataConsent":true,"createdAt":"2025-07-27T19:19:27.280Z","updatedAt":"2025-07-27T19:19:27.280Z","isActive":true,"crops":["Metal","Frozen"],"farmPhotos":[],"isUssd":false},{"id":1785,"yemertId":"YM-6552","timestamp":null,"fullName":"Tim Weimann","gender":"male","region":null,"ageRange":"176-303","nationalIdNumber":"834624738705","email":"Jarrett_McDermott@yahoo.com","phoneNumber":"+429-903-7654","mobileMoney":null,"provider":"NONE","whatsappNumber":"+637-356-0118","homeAddress":"9508 Gaylord Tunnel","countyDistrict":"Democratic People's Republic of Korea","country":"Chile","farmLocation":"Karliestad","farmSize":5.2,"actualFarmSize":"5.2 hectares","landOwnershipStatus":"Owned","yearsFarmingExperience":"10","averageAnnualYield":"20 tons","farmingPractices":"Organic farming, Mixed cropping","annualFarmingRevenue":"₦3,000,000","accessToCredit":"Yes","previousInsurance":"No","produceSaleLocation":"Local market","financialChallenge":"High input cost","recentChallenges":"Flooding, Pest invasion","soilManagement":"Crop rotation, Compost use","irrigationAccess":true,"climateResilientProgram":true,"sustainablePractices":"Use of compost, minimal tillage","carbonCreditProgram":false,"cropInsuranceInterest":true,"paymentFrequency":"Quarterly","insuranceConcerns":"High premium cost","recommendInsurance":"Yes, to fellow farmers","dataConsent":true,"createdAt":"2025-07-27T19:19:27.279Z","updatedAt":"2025-07-27T19:19:27.279Z","isActive":true,"crops":["Concrete","Rubber"],"farmPhotos":[],"isUssd":false},{"id":1783,"yemertId":"YM-1199","timestamp":null,"fullName":"Darnell Hessel","gender":"male","region":null,"ageRange":"396-667","nationalIdNumber":"476549856374","email":"Andreane_Carroll32@gmail.com","phoneNumber":"+641-375-1432","mobileMoney":null,"provider":"NONE","whatsappNumber":"+231-695-6958","homeAddress":"79666 Bartholome Mall","countyDistrict":"Vietnam","country":"Rwanda","farmLocation":"Handville","farmSize":5.2,"actualFarmSize":"5.2 hectares","landOwnershipStatus":"Owned","yearsFarmingExperience":"10","averageAnnualYield":"20 tons","farmingPractices":"Organic farming, Mixed cropping","annualFarmingRevenue":"₦3,000,000","accessToCredit":"Yes","previousInsurance":"No","produceSaleLocation":"Local market","financialChallenge":"High input cost","recentChallenges":"Flooding, Pest invasion","soilManagement":"Crop rotation, Compost use","irrigationAccess":true,"climateResilientProgram":true,"sustainablePractices":"Use of compost, minimal tillage","carbonCreditProgram":false,"cropInsuranceInterest":true,"paymentFrequency":"Quarterly","insuranceConcerns":"High premium cost","recommendInsurance":"Yes, to fellow farmers","dataConsent":true,"createdAt":"2025-07-27T19:19:27.278Z","updatedAt":"2025-07-27T19:19:27.278Z","isActive":true,"crops":["Cotton","Cotton"],"farmPhotos":[],"isUssd":false},{"id":1784,"yemertId":"YM-2340","timestamp":null,"fullName":"Wm Bins II","gender":"male","region":null,"ageRange":"828-106","nationalIdNumber":"179962393141","email":"Freeman88@gmail.com","phoneNumber":"+598-849-8362","mobileMoney":null,"provider":"NONE","whatsappNumber":"+605-275-8797","homeAddress":"922 Lesch Station","countyDistrict":"Libyan Arab Jamahiriya","country":"Mauritania","farmLocation":"South Mustafa","farmSize":5.2,"actualFarmSize":"5.2 hectares","landOwnershipStatus":"Owned","yearsFarmingExperience":"10","averageAnnualYield":"20 tons","farmingPractices":"Organic farming, Mixed cropping","annualFarmingRevenue":"₦3,000,000","accessToCredit":"Yes","previousInsurance":"No","produceSaleLocation":"Local market","financialChallenge":"High input cost","recentChallenges":"Flooding, Pest invasion","soilManagement":"Crop rotation, Compost use","irrigationAccess":true,"climateResilientProgram":true,"sustainablePractices":"Use of compost, minimal tillage","carbonCreditProgram":false,"cropInsuranceInterest":true,"paymentFrequency":"Quarterly","insuranceConcerns":"High premium cost","recommendInsurance":"Yes, to fellow farmers","dataConsent":true,"createdAt":"2025-07-27T19:19:27.276Z","updatedAt":"2025-07-27T19:19:27.276Z","isActive":true,"crops":["Rubber","Fresh"],"farmPhotos":[],"isUssd":false},{"id":1782,"yemertId":"YM-6378","timestamp":null,"fullName":"Evan Effertz","gender":null,"region":null,"ageRange":null,"nationalIdNumber":null,"email":null,"phoneNumber":null,"mobileMoney":null,"provider":"NONE","whatsappNumber":null,"homeAddress":null,"countyDistrict":null,"country":null,"farmLocation":null,"farmSize":null,"actualFarmSize":null,"landOwnershipStatus":null,"yearsFarmingExperience":null,"averageAnnualYield":null,"farmingPractices":"Local farming","annualFarmingRevenue":null,"accessToCredit":"not common","previousInsurance":"not common","produceSaleLocation":"local market","financialChallenge":null,"recentChallenges":null,"soilManagement":null,"irrigationAccess":false,"climateResilientProgram":false,"sustainablePractices":null,"carbonCreditProgram":false,"cropInsuranceInterest":false,"paymentFrequency":null,"insuranceConcerns":null,"recommendInsurance":null,"dataConsent":false,"createdAt":"2025-07-27T19:16:05.229Z","updatedAt":"2025-07-27T19:16:05.229Z","isActive":true,"crops":["Rubber","Fresh"],"farmPhotos":[],"isUssd":false},{"id":1781,"yemertId":"YM-1655","timestamp":null,"fullName":"Bill Stark","gender":"male","region":null,"ageRange":"247-668","nationalIdNumber":"742249502542","email":"Schuyler.Veum@hotmail.com","phoneNumber":"+1234567890","mobileMoney":null,"provider":"NONE","whatsappNumber":"+505-889-5674","homeAddress":"6629 Jesus Orchard","countyDistrict":"Western Sahara","country":"Bahamas","farmLocation":"Valentinbury","farmSize":5.2,"actualFarmSize":"5.2 hectares","landOwnershipStatus":"Owned","yearsFarmingExperience":"10","averageAnnualYield":"20 tons","farmingPractices":"Organic farming, Mixed cropping","annualFarmingRevenue":"₦3,000,000","accessToCredit":"Yes","previousInsurance":"No","produceSaleLocation":"Local market","financialChallenge":"High input cost","recentChallenges":"Flooding, Pest invasion","soilManagement":"Crop rotation, Compost use","irrigationAccess":true,"climateResilientProgram":true,"sustainablePractices":"Use of compost, minimal tillage","carbonCreditProgram":false,"cropInsuranceInterest":true,"paymentFrequency":"Quarterly","insuranceConcerns":"High premium cost","recommendInsurance":"Yes, to fellow farmers","dataConsent":true,"createdAt":"2025-07-27T19:15:49.824Z","updatedAt":"2025-07-27T19:15:49.824Z","isActive":true,"crops":["Fresh","Granite"],"farmPhotos":[],"isUssd":false},{"id":1780,"yemertId":"YM-3922","timestamp":null,"fullName":"Lillian Rodriguez","gender":"male","region":null,"ageRange":"321-441","nationalIdNumber":"79388528085","email":"Jonas.Jast49@gmail.com","phoneNumber":"+1234567890","mobileMoney":null,"provider":"NONE","whatsappNumber":"+932-743-9139","homeAddress":"840 Titus Mountain","countyDistrict":"Bulgaria","country":"Ecuador","farmLocation":"West Nathen","farmSize":5.2,"actualFarmSize":"5.2 hectares","landOwnershipStatus":"Owned","yearsFarmingExperience":"10","averageAnnualYield":"20 tons","farmingPractices":"Organic farming, Mixed cropping","annualFarmingRevenue":"₦3,000,000","accessToCredit":"Yes","previousInsurance":"No","produceSaleLocation":"Local market","financialChallenge":"High input cost","recentChallenges":"Flooding, Pest invasion","soilManagement":"Crop rotation, Compost use","irrigationAccess":true,"climateResilientProgram":true,"sustainablePractices":"Use of compost, minimal tillage","carbonCreditProgram":false,"cropInsuranceInterest":true,"paymentFrequency":"Quarterly","insuranceConcerns":"High premium cost","recommendInsurance":"Yes, to fellow farmers","dataConsent":true,"createdAt":"2025-07-27T19:14:55.367Z","updatedAt":"2025-07-27T19:14:55.367Z","isActive":true,"crops":["Wooden","Rubber"],"farmPhotos":[],"isUssd":false},{"id":1779,"yemertId":"YM-3694","timestamp":null,"fullName":"Jacob Upton DDS","gender":"male","region":null,"ageRange":"108-996","nationalIdNumber":"47993951636","email":"Frances98@yahoo.com","phoneNumber":"+1234567890","mobileMoney":null,"provider":"NONE","whatsappNumber":"+448-475-1500","homeAddress":"226 Pauline Station","countyDistrict":"Botswana","country":"Niger","farmLocation":"North Julio","farmSize":5.2,"actualFarmSize":"5.2 hectares","landOwnershipStatus":"Owned","yearsFarmingExperience":"10","averageAnnualYield":"20 tons","farmingPractices":"Organic farming, Mixed cropping","annualFarmingRevenue":"₦3,000,000","accessToCredit":"Yes","previousInsurance":"No","produceSaleLocation":"Local market","financialChallenge":"High input cost","recentChallenges":"Flooding, Pest invasion","soilManagement":"Crop rotation, Compost use","irrigationAccess":true,"climateResilientProgram":true,"sustainablePractices":"Use of compost, minimal tillage","carbonCreditProgram":false,"cropInsuranceInterest":true,"paymentFrequency":"Quarterly","insuranceConcerns":"High premium cost","recommendInsurance":"Yes, to fellow farmers","dataConsent":true,"createdAt":"2025-07-27T19:14:36.611Z","updatedAt":"2025-07-27T19:14:36.611Z","isActive":true,"crops":["Fresh","Fresh"],"farmPhotos":[],"isUssd":false},{"id":1778,"yemertId":"YM-2991","timestamp":null,"fullName":"Ricky O'Conner","gender":"male","region":null,"ageRange":"500-242","nationalIdNumber":"647552303143","email":"Eloisa.Lesch85@hotmail.com","phoneNumber":"+1234567890","mobileMoney":null,"provider":"NONE","whatsappNumber":"+308-960-8986","homeAddress":"1762 Clint Fall","countyDistrict":"Philippines","country":"Cote d'Ivoire","farmLocation":"Biloxi","farmSize":5.2,"actualFarmSize":"5.2 hectares","landOwnershipStatus":"Owned","yearsFarmingExperience":"10","averageAnnualYield":"20 tons","farmingPractices":"Organic farming, Mixed cropping","annualFarmingRevenue":"₦3,000,000","accessToCredit":"Yes","previousInsurance":"No","produceSaleLocation":"Local market","financialChallenge":"High input cost","recentChallenges":"Flooding, Pest invasion","soilManagement":"Crop rotation, Compost use","irrigationAccess":true,"climateResilientProgram":true,"sustainablePractices":"Use of compost, minimal tillage","carbonCreditProgram":false,"cropInsuranceInterest":true,"paymentFrequency":"Quarterly","insuranceConcerns":"High premium cost","recommendInsurance":"Yes, to fellow farmers","dataConsent":true,"createdAt":"2025-07-27T19:11:48.317Z","updatedAt":"2025-07-27T19:11:48.317Z","isActive":true,"crops":["Rubber","Rubber"],"farmPhotos":[],"isUssd":false},{"id":1777,"yemertId":"YM-2455","timestamp":null,"fullName":"Dr. Al Stiedemann","gender":"male","region":null,"ageRange":"9-52","nationalIdNumber":"91776611911","email":"Pietro12@gmail.com","phoneNumber":"+1234567890","mobileMoney":null,"provider":"NONE","whatsappNumber":"+609-923-3653","homeAddress":"40317 McLaughlin Cliff","countyDistrict":"Hungary","country":"Oman","farmLocation":"O'Reillyton","farmSize":5.2,"actualFarmSize":"5.2 hectares","landOwnershipStatus":"Owned","yearsFarmingExperience":"10","averageAnnualYield":"20 tons","farmingPractices":"Organic farming, Mixed cropping","annualFarmingRevenue":"₦3,000,000","accessToCredit":"Yes","previousInsurance":"No","produceSaleLocation":"Local market","financialChallenge":"High input cost","recentChallenges":"Flooding, Pest invasion","soilManagement":"Crop rotation, Compost use","irrigationAccess":true,"climateResilientProgram":true,"sustainablePractices":"Use of compost, minimal tillage","carbonCreditProgram":false,"cropInsuranceInterest":true,"paymentFrequency":"Quarterly","insuranceConcerns":"High premium cost","recommendInsurance":"Yes, to fellow farmers","dataConsent":true,"createdAt":"2025-07-27T19:05:05.808Z","updatedAt":"2025-07-27T19:05:05.808Z","isActive":true,"crops":["Rubber","Rubber"],"farmPhotos":[],"isUssd":false},{"id":1776,"yemertId":"YM-7667","timestamp":null,"fullName":"Tracy Cronin","gender":"male","region":null,"ageRange":"813-894","nationalIdNumber":"709977961973","email":"Viola_Beatty26@yahoo.com","phoneNumber":"+1234567890","mobileMoney":null,"provider":"NONE","whatsappNumber":"+876-676-7888","homeAddress":"44322 Bradford Rest","countyDistrict":"New Caledonia","country":"Antarctica (the territory South of 60 deg S)","farmLocation":"South Adah","farmSize":5.2,"actualFarmSize":"5.2 hectares","landOwnershipStatus":"Owned","yearsFarmingExperience":"10","averageAnnualYield":"20 tons","farmingPractices":"Organic farming, Mixed cropping","annualFarmingRevenue":"₦3,000,000","accessToCredit":"Yes","previousInsurance":"No","produceSaleLocation":"Local market","financialChallenge":"High input cost","recentChallenges":"Flooding, Pest invasion","soilManagement":"Crop rotation, Compost use","irrigationAccess":false,"climateResilientProgram":true,"sustainablePractices":"Use of compost, minimal tillage","carbonCreditProgram":false,"cropInsuranceInterest":true,"paymentFrequency":"Quarterly","insuranceConcerns":"High premium cost","recommendInsurance":"Yes, to fellow farmers","dataConsent":true,"createdAt":"2025-07-21T17:22:59.739Z","updatedAt":"2025-07-21T17:22:59.739Z","isActive":true,"crops":["Cotton","Wooden"],"farmPhotos":[],"isUssd":false}],"pagination":{"total":133,"page":2,"limit":15,"totalPages":9}}}